Place,Name,Sex,BirthDate,BirthYear,Age,Country,State,Equipment,Division,BodyweightKg,WeightClassKg,Squat1Kg,Squat2Kg,Squat3Kg,Best3SquatKg,Bench1Kg,Bench2Kg,Bench3Kg,Best3BenchKg,Deadlift1Kg,Deadlift2Kg,Deadlift3Kg,Best3DeadliftKg,TotalKg,Event
1,Laurel Funderburk,F,,1993,28,,MO,Raw,Open,49.6,54.43,62,66,70,70,41,43,-45,43,82,84,87,87,200,SBD
1,Sonia Navarro,F,,1990,31,,AZ,Raw,Open,58.95,63.5,128,130,-135,130,67,-73,-76,67,133,142,150,150,347,SBD
2,Angelica Cecil,F,,1997,24,,IL,Raw,Open,62.85,63.5,105,113,120,120,55,-59,59,59,125,-130,-130,125,304,SBD
3,Hailey Cronin,F,,1988,32,,MO,Raw,Open,62.45,63.5,63,70,75,75,45,-52,-52,45,80,88,95,95,215,SBD
1,Lindsey Pecoraro,F,,1994,26,,MO,Raw,Open,68.05,72.57,85,92,100,100,61,66,-68,66,113,125,-137,125,291,SBD
1,Katie Leger,F,,1989,32,,MO,Raw,Open,80.2,81.65,128,138,-143,138,71,76,-79,76,166,178,182,182,396,SBD
2,Allison Wilson #2,F,,1992,29,,,Raw,Open,81.05,81.65,87,95,102,102,37,43,-47,43,115,121,131,131,276,SBD
3,Chelsea France,F,,1982,39,,MO,Raw,Open,80.85,81.65,60,68,77,77,35,41,-46,41,75,85,92,92,210,SBD
1,Madison Hartke,F,,1995,26,,MO,Raw,Open,86.45,90.72,107,115,122,122,59,62,-64,62,125,135,142,142,326,SBD
1,Charese Bova,F,,1991,29,,IA,Raw,Open,117.4,90.72+,135,150,165,165,103,108,110,110,160,180,203,203,478,SBD
1,Kelly Summerfield,F,,1980,41,,MO,Raw,Masters 40+,65.2,72.57,90,-96,96,96,52,-55,55,55,107,115,-117,115,266,SBD
1,Marissa France,F,,1979,41,,MO,Raw,Masters 40+,74.65,81.65,90,113,118,118,70,75,83,83,115,138,144,144,345,SBD
2,Amy Benga,F,,1973,48,,MO,Raw,Masters 40+,79.6,81.65,98,107,112,112,57,61,65,65,135,146,-150,146,323,SBD
3,Maggie Voisey,F,,1962,59,,MO,Raw,Masters 40+,78.5,81.65,30,36,45,45,30,-36,36,36,75,84,-91,84,165,SBD
1,Theresa Norman,F,,1958,63,,MO,Raw,Masters 40+,82.4,90.72,68,72,74,74,39,43,-44,43,93,100,105,105,222,SBD
1,Colleen Sansone,F,,1965,56,,MO,Raw,Masters 40+,101,90.72+,115,122,128,128,76,81,-85,81,145,155,160,160,369,SBD
2,Randi Becker,F,,1980,40,,MO,Raw,Masters 40+,112,90.72+,80,88,96,96,45,48,-51,48,105,114,-126,114,258,SBD
3,Denise Bamert,F,,1957,64,,MO,Raw,Masters 40+,95.65,90.72+,82,87,92,92,40,43,44,44,98,105,-110,105,241,SBD
1,Joshua Truax,M,,1987,34,,MI,Raw,Open,88.25,90.72,170,175,182,182,132,139,143,143,216,227,,227,552,SBD
2,Alexander Vorachack,M,,1997,23,,MO,Raw,Open,86.45,90.72,165,178,-185,178,115,123,127,127,180,190,200,200,505,SBD
3,Jacob Henderson,M,,1993,28,,MO,Raw,Open,90.45,90.72,140,148,155,155,105,111,120,120,165,175,185,185,460,SBD
1,Adam Haseley,M,,1993,28,,OH,Raw,Open,99.65,104.78,252,265,-270,265,166,-175,179,179,265,-288,-288,265,709,SBD
2,John Fuston,M,,1985,36,,KS,Raw,Open,99.9,104.78,202,213,230,230,136,143,149,149,240,260,270,270,649,SBD
3,Estevenson Coleman,M,,1994,27,,MO,Raw,Open,95.7,104.78,206,211,217,217,125,134,143,143,252,261,272,272,632,SBD
DQ,Martin Valenzuela,M,,1987,34,,IL,Raw,Open,100.6,104.78,230,240,253,253,155,162,168,168,-245,-254,-254,,,SBD
1,Brian Bechard,M,,1983,38,,MO,Raw,Open,112.9,120.2,245,260,273,273,138,144,155,155,255,267,280,280,708,SBD
2,Patrick Youmans,M,,1983,38,,MO,Raw,Open,115.25,120.2,230,245,256,256,155,169,176,176,235,250,-263,250,682,SBD
1,Dan Mason #3,M,,1982,39,,IN,Raw,Open,129.95,120.2+,220,238,256,256,202,216,230,230,265,-288,288,288,774,SBD
2,Clay Mcelwain,M,,1993,28,,GA,Raw,Open,122.85,120.2+,215,237,-250,237,140,155,-165,155,205,223,235,235,627,SBD
1,Denis Motyko,M,,2002,19,,OR,Raw,Juniors 13-19,109.25,0+,238,256,269,269,152,-171,174,174,257,280,293,293,736,SBD
2,Dylan Fleetwood,M,,2005,15,,MO,Raw,Juniors 13-19,73.9,0+,132,145,-152,145,81,87,-91,87,147,157,166,166,398,SBD
1,James W Riendeau,M,,1968,52,,MO,Raw,Masters 40+,88.05,90.72,125,143,152,152,130,-143,143,143,143,171,,171,466,SBD
1,Tyson Adams,M,,1972,48,,CA,Raw,Masters 40+,99.9,104.78,193,203,207,207,138,143,-145,143,210,227,-237,227,577,SBD
2,Geoffrey Claro,M,,1978,42,,MD,Raw,Masters 40+,101,104.78,170,185,190,190,110,115,125,125,175,190,-200,190,505,SBD
3,Ben Ellis,M,,1980,41,,MO,Raw,Masters 40+,97.52,104.78,138,150,-155,150,111,120,127,127,179,195,207,207,484,SBD
1,Jason Donaldson,M,,1972,49,,WI,Raw,Masters 40+,113.8,120.2,175,190,201,201,125,151,-155,151,165,185,196,196,548,SBD
2,Anthony Weber,M,,1976,45,,MO,Raw,Masters 40+,105.75,120.2,162,175,178,178,107,-113,-113,107,212,227,237,237,522,SBD
1,Jason Mincher,M,,1979,42,,MO,Raw,Masters 40+,135.95,120.2+,235,-262,-273,235,140,152,159,159,230,-260,-260,230,624,SBD
1,Hari Fafutis,M,,1993,28,,,Raw,Open,,0+,240,250,,250,,,,,,,,,250,S
2,Grant Hill,M,,1980,41,,,Raw,Open,98.7,0+,185,197,205,205,,,,,,,,,205,S
