Name,Sex,Age,BodyweightKg,WeightClassKg,Division,Squat1Kg,Squat2Kg,Squat3Kg,Squat4Kg,Best3SquatKg,Bench1Kg,Bench2Kg,Bench3Kg,Bench4Kg,Best3BenchKg,Deadlift1Kg,Deadlift2Kg,Deadlift3Kg,Deadlift4Kg,Best3DeadliftKg,TotalKg,Place,Equipment,Event,Country
Kristína Fečová,F,20,61.4,67.5,J,,,,,,80,-90,-90,,80,,,,,,80,1,Multi-ply,B,Slovakia
Honrata Kaczorowska,F,32,61.7,67.5,O,,,,,,115,117.5,120,,120,,,,,,120,1,Multi-ply,B,Poland
Frederic Lambiel,M,13,55.2,56,T1,,,,,,60,62.5,65,-75.5,65,,,,,,65,1,Multi-ply,B,France
Nino Sana,M,14,59.7,60,T1,,,,,,45,-50,-50,,45,,,,,,45,1,Multi-ply,B,France
Saša Antić,M,46,75,75,M2,,,,,,100,110,,,110,,,,,,110,1,Multi-ply,B,Serbia
Joannis Sulime,M,66,72.9,75,M6,,,,,,120,122.5,127.5,,127.5,,,,,,127.5,1,Multi-ply,B,France
Milou Lazreg,M,70,72.5,75,M7,,,,,,75,80,,,80,,,,,,80,1,Multi-ply,B,France
Ilkka Naskali,M,28,79.9,82.5,O,,,,,,-200,202.5,-215,,202.5,,,,,,202.5,1,Multi-ply,B,Finland
Dimitri Kukharenko,M,49,76.2,82.5,M2,,,,,,-180,180,-200,,180,,,,,,180,1,Multi-ply,B,Spain
Mieczysłąw Maczka,M,63,82.2,82.5,M5,,,,,,100,,,,100,,,,,,100,1,Multi-ply,B,Germany
Jose Ramon Sanchez Medina,M,40,85.5,90,M1,,,,,,-150,-150,150,,150,,,,,,150,1,Multi-ply,B,Spain
Alexis Andres,M,45,85.1,90,M2,,,,,,152.5,157.5,160,,160,,,,,,160,1,Multi-ply,B,France
Robert Kanclerz,M,40,95.7,100,M1,,,,,,185,195,202.5,,202.5,,,,,,202.5,1,Multi-ply,B,Poland
Christian Vagner,M,46,95.7,100,M2,,,,,,160,170,-180,,170,,,,,,170,1,Multi-ply,B,France
Franciszek Szabluk,M,61,98.5,100,M5,,,,,,210,-220,-220,,210,,,,,,210,1,Multi-ply,B,Poland
Jani Toivo Kristian Ihalainen,M,42,106.1,110,M1,,,,,,200,,,,200,,,,,,200,1,Multi-ply,B,Finland
Sergey Starodubskiy,M,40,116.7,125,M1,,,,,,280,305,-320.5,,305,,,,,,305,1,Multi-ply,B,Russia
Laurent Jacques,M,48,124.8,125,M2,,,,,,212.5,-220,220,,220,,,,,,220,1,Multi-ply,B,France
Eric Bar,M,49,111,125,M2,,,,,,215,-217.5,-220,,215,,,,,,215,2,Multi-ply,B,France
Saša Mašanović,M,51,120.7,125,M3,,,,,,215,225,-232.5,,225,,,,,,225,1,Multi-ply,B,Montenegro
Marc Savoca,M,57,113.4,125,M4,,,,,,-195,-195,195,,195,,,,,,195,1,Multi-ply,B,France
Nenad Stojanović,M,35,115.8,125,O,,,,,,100,,,,100,,,,,,100,1,Multi-ply,B,Serbia
Janík Velgos,M,17,125,125,T2,,,,,,320,-330,340,-347.5,340,,,,,,340,1,Multi-ply,B,Slovakia
Oskars Zwarts,M,39,137.1,140,O,,,,,,235,245,260,,260,,,,,,260,1,Multi-ply,B,Ireland
Tamara Gajdosova,F,13,46.5,48,T1,,,,,,,,,,,60,70,80,,80,80,1,Raw,D,Slovakia
Lorraine Balbiani,F,23,55.6,56,J,,,,,,,,,,,110,117.5,-120,,117.5,117.5,1,Raw,D,France
Dana Bešková,F,63,54.2,56,M5,,,,,,,,,,,60,70,75,,75,75,1,Raw,D,Czechia
Bekki Cole,F,24,58.5,60,O,,,,,,,,,,,115,122.5,-130,,122.5,122.5,1,Raw,D,UK
Petrana Blašková,F,26,59,60,O,,,,,,,,,,,90,100,110,,110,110,2,Raw,D,Slovakia
Ellen Tobin Hogan,F,24,63.2,67.5,O,,,,,,,,,,,110,117.5,-120,,117.5,117.5,1,Raw,D,Ireland
Rehana Maniar,F,43,67,67.5,M1,,,,,,,,,,,130,147.5,160,,160,160,1,Raw,D,Ireland
Céline Corringer,F,41,65.6,67.5,M1,,,,,,,,,,,120,-125,,,120,120,2,Raw,D,France
Lesley Jayne Thomas,F,52,66.8,67.5,M3,,,,,,,,,,,135,,,,135,135,1,Raw,D,UK
Veronika Zemanová,F,36,68.1,75,O,,,,,,,,,,,150,170,185,,185,185,1,Raw,D,Czechia
Pauliina Loponen,F,24,70.8,75,O,,,,,,,,,,,130,-152.5,157.5,,157.5,157.5,2,Raw,D,Finland
Virpi Knuutila,F,50,81,82.5,M3,,,,,,,,,,,205,220,-230,,220,220,1,Raw,D,Finland
Andreja Valant,F,37,87.2,90,O,,,,,,,,,,,150,160,-170,,160,160,1,Raw,D,Slovenia
Pavel Balážik,M,38,55.3,56,O,,,,,,,,,,,140,147.5,-155,,147.5,147.5,1,Raw,D,Slovakia
George Cole #1,M,26,55.6,56,O,,,,,,,,,,,125,132.5,-140,,132.5,132.5,2,Raw,D,UK
Jason Bar,M,15,56.4,60,T1,,,,,,,,,,,90,-102.5,,,90,90,1,Raw,D,France
Samsat Tom Leckloksavang,M,25,63.6,67.5,O,,,,,,,,,,,160,165,-170,,165,165,1,Raw,D,France
Nicola Stankovic,M,17,72.7,75,T2,,,,,,,,,,,175,-185,-185,,175,175,1,Raw,D,Serbia
Ivan Stanković,M,43,74.2,75,M1,,,,,,,,,,,215,227.5,240,,240,240,1,Raw,D,Serbia
Aldo Michaux,M,42,72.2,75,M1,,,,,,,,,,,170,-182.5,-182.5,,170,170,2,Raw,D,France
Adriano DaCosta,M,55,71.3,75,M4,,,,,,,,,,,200,-215,,,200,200,1,Raw,D,France
Guylhem Feraud,M,73,73.5,75,M7,,,,,,,,,,,170,180.5,,,180.5,180.5,1,Raw,D,France
Dominik Minárik,M,18,80.1,82.5,T3,,,,,,,,,,,210,230,245,,245,245,1,Raw,D,Slovakia
Ilkka Naskali,M,28,82.3,82.5,O,,,,,,,,,,,180,205,225,,225,225,1,Raw,D,Finland
Marvin L'Huillier,M,26,80,82.5,O,,,,,,,,,,,180,-200,200,,200,200,2,Raw,D,France
Bertrand Couvercelle,M,40,81.8,82.5,M1,,,,,,,,,,,187.5,200,,,200,200,1,Raw,D,France
Eduardo Hernández de Palma,M,66,82.4,82.5,M6,,,,,,,,,,,-200,-230,-230,,,,DQ,Raw,D,Spain
Bill Healy,M,68,81,82.5,M6,,,,,,,,,,,-225,225,-232.5,,225,225,1,Raw,D,Ireland
Aleksandrs Ņikitins,M,51,88.3,90,O,,,,,,,,,,,270,285,292.5,,292.5,292.5,1,Raw,D,Latvia
Tomáš Ryšavý,M,26,83.4,90,O,,,,,,,,,,,260,275,285,,285,285,2,Raw,D,Slovakia
Thierry le Roy,M,44,87.5,90,M1,,,,,,,,,,,200,225,-230,,225,225,1,Raw,D,France
Chris Morgan #1,M,45,88.5,90,M2,,,,,,,,,,,200,220,235,,235,235,1,Raw,D,UK
Mieczysłąw Maczka,M,63,83.2,90,M5,,,,,,,,,,,120,135,,,135,135,1,Raw,D,Germany
Martin Horák,M,42,99.3,100,M1,,,,,,,,,,,230,240,-250,,240,240,1,Raw,D,Czechia
Lukáš Bláha,M,22,98.1,100,J,,,,,,,,,,,330,342.5,-345,,342.5,342.5,1,Raw,D,Czechia
Ger Twomey,M,37,98.3,100,O,,,,,,,,,,,280,292.5,300,,300,300,1,Raw,D,Ireland
Alexandre Saingrey,M,29,96.2,100,O,,,,,,,,,,,230,250,-257.5,,250,250,2,Raw,D,France
Jan Sztefek,M,35,99.1,100,O,,,,,,,,,,,250,-270,-272.5,,250,250,3,Raw,D,Czechia
Lionel Michot,M,53,98.4,100,M3,,,,,,,,,,,220,235.5,,,235.5,235.5,1,Raw,D,France
Vladimír Svoboda,M,65,93.1,100,M6,,,,,,,,,,,160,170,175,,175,175,1,Raw,D,Czechia
Ádám Jakubek,M,17,107.3,110,T2,,,,,,,,,,,210,225,230,,230,230,1,Raw,D,Slovakia
Ioannis Krokos,M,20,106.8,110,J,,,,,,,,,,,270,-285,-290,,270,270,1,Raw,D,Luxembourg
Audric Foucaud,M,23,107.7,110,J,,,,,,,,,,,235,-250,-250,,235,235,2,Raw,D,France
Mohamed Ait Mehdy,M,31,103.2,110,O,,,,,,,,,,,280,300,315,,315,315,1,Raw,D,France
Juraj Grígeľ,M,25,106.8,110,O,,,,,,,,,,,300,315,-322.5,,315,315,2,Raw,D,Slovakia
Eric Bar,M,49,107.5,110,M2,,,,,,,,,,,230,,,,230,230,1,Raw,D,France
Tibor Gejdoš,M,54,101.3,110,M3,,,,,,,,,,,225,240,250,255.5,250,250,1,Raw,D,Slovakia
Roman Petrás,M,23,117.4,125,J,,,,,,,,,,,-305,310,-320,,310,310,1,Raw,D,Czechia
Kristof de Coninck,M,32,119.3,125,O,,,,,,,,,,,315,-330,330,,330,330,1,Raw,D,Belgium
Dmytro Holtashov,M,32,110.8,125,O,,,,,,,,,,,260,280,-300,,280,280,2,Raw,D,Ukraine
Franck Loup,M,50,123,125,M3,,,,,,,,,,,230,250,,,250,250,1,Raw,D,France
Marc Savoca,M,57,114.9,125,M4,,,,,,,,,,,200,215,-222.5,,215,215,1,Raw,D,France
Adam Švehla,M,37,134.1,140,O,,,,,,,,,,,315,325,-330,,325,325,1,Raw,D,Czechia
Rehana Maniar,F,43,67,67.5,M1,,,,,,,,,,,145,163,177.5,180,177.5,177.5,1,Multi-ply,D,Ireland
Ilkka Naskali,M,28,79.9,82.5,O,,,,,,,,,,,200,230,260,,260,260,1,Multi-ply,D,Finland
Jaroslav Tomanec,M,75,80.9,82.5,M8,,,,,,,,,,,150,155,160,,160,160,1,Multi-ply,D,Czechia
Mieczysłąw Maczka,M,63,82.2,82.5,M5,,,,,,,,,,,120,,,,120,120,1,Multi-ply,D,Germany
Milija Antić,M,47,87,90,M2,,,,,,,,,,,150,,,,150,150,1,Multi-ply,D,Serbia
Heinz Mihoubi,M,70,98,100,M7,,,,,,,,,,,185,195,200,,200,200,1,Multi-ply,D,Germany
Wiesław Wrŏbel,M,61,99.7,100,M5,,,,,,,,,,,235,250,260,,260,260,1,Multi-ply,D,Poland
Cirulis Ivars,M,38,104.7,110,O,,,,,,,,,,,300,320,-330,,320,320,1,Multi-ply,D,Latvia
Jani Toivo Kristian Ihalainen,M,42,106.1,110,M1,,,,,,,,,,,220,260,-302.5,,260,260,1,Multi-ply,D,Finland
David Thomas #4,M,66,106.4,110,M6,,,,,,,,,,,160,181,,,181,181,1,Multi-ply,D,UK
Ioannis Krokos,M,20,106.6,110,J,,,,,,,,,,,265,280,287.5,-290,287.5,287.5,1,Multi-ply,D,Luxembourg
Vasilii Mazur,M,34,113.2,125,O,,,,,,,,,,,-315,315,-330,,315,315,1,Multi-ply,D,Moldova
Péter Pintér,M,33,115.4,125,O,,,,,,,,,,,280,300,305,,305,305,2,Multi-ply,D,Slovakia
Lorraine Balbiani,F,23,55.7,56,J,,,,,,60,-63,63,65,63,,,,,,63,1,Raw,B,France
Dana Bešková,F,63,55.9,56,M5,,,,,,35,-40,-40,,35,,,,,,35,1,Raw,B,Czechia
Fatiha Chettibi,F,27,56.8,60,O,,,,,,85,90,-92.5,,90,,,,,,90,1,Raw,B,France
Veronika Zemanová,F,36,68.4,75,O,,,,,,-85,95,-102.5,,95,,,,,,95,1,Raw,B,Czechia
Paulina Loponen,F,24,71.5,75,O,,,,,,70,-85.5,-85.5,,70,,,,,,70,2,Raw,B,Finland
Marianne Hartio,F,25,70.6,75,O,,,,,,-90,-95,-95,,,,,,,,,DQ,Raw,B,Finland
Blandine Deprez,F,32,78,82.5,O,,,,,,62.5,-67.5,-67.5,,62.5,,,,,,62.5,1,Raw,B,France
Andreja Valant,F,37,86.7,90,O,,,,,,60,-67.5,-67.5,,60,,,,,,60,1,Raw,B,Slovenia
Charlotte Wareing,F,55,105,110,M4,,,,,,100,105,-107.5,,105,,,,,,105,1,Raw,B,UK
Virpi Knuutila,F,50,85.1,90,M3,,,,,,115,122.5,-132.5,-132.5,122.5,,,,,,122.5,1,Raw,B,Finland
Frederic Lambiel,M,13,54.3,56,T1,,,,,,60,-62.5,-62.5,,60,,,,,,60,1,Raw,B,France
Nino Sana,M,14,58.2,60,T1,,,,,,42.5,45,-50,,45,,,,,,45,1,Raw,B,France
Ianis Kalaichev,M,32,59.6,60,O,,,,,,145,152.5,-157.5,,152.5,,,,,,152.5,1,Raw,B,Russia
Jiří Lacina,M,27,59.6,60,O,,,,,,110,112.5,,,112.5,,,,,,112.5,2,Raw,B,Czechia
Lukáš Sobotka,M,26,67.5,67.5,O,,,,,,107.5,-115,115,,115,,,,,,115,1,Raw,B,Czechia
Dirk Leverenz,M,30,64.8,67.5,O,,,,,,95,-100,100,,100,,,,,,100,2,Raw,B,Germany
Samsat Tom Leckloksavang,M,25,63.7,67.5,O,,,,,,70,75,80,,80,,,,,,80,3,Raw,B,France
Dávid Horák,M,15,69.4,75,T1,,,,,,70,75,-82.5,,75,,,,,,75,1,Raw,B,Czechia
Thomas Czaplicki,M,16,74.3,75,T2,,,,,,110,115,118,120,118,,,,,,118,1,Raw,B,France
Zdeněk Holeček,M,30,73.7,75,O,,,,,,165,-175,-175,,165,,,,,,165,1,Raw,B,Czechia
Remy Lourdet,M,35,72.2,75,O,,,,,,140,150,155,,155,,,,,,155,2,Raw,B,France
Rodriguez Exume,M,31,73.3,75,O,,,,,,125,-130,130,,130,,,,,,130,3,Raw,B,France
Aldo Michaux,M,42,72.1,75,M1,,,,,,100,110,115,,115,,,,,,115,1,Raw,B,France
Boshko Stamenkovski,M,47,74.1,75,M2,,,,,,120,125,130,,130,,,,,,130,1,Raw,B,North Macedonia
Joannis Sulime,M,66,73.9,75,M6,,,,,,100,105,,,105,,,,,,105,1,Raw,B,France
Guylehm Feraud,M,73,73.2,75,M7,,,,,,100,105,107.5,,107.5,,,,,,107.5,1,Raw,B,France
Milou Lazreg,M,70,72.8,75,M7,,,,,,75,80,,,80,,,,,,80,2,Raw,B,France
Dennis Glok,M,19,81.9,82.5,T3,,,,,,110,115,120,,120,,,,,,120,1,Raw,B,Germany
Patrik Tomáš,M,22,81.8,82.5,J,,,,,,150,160,-162.5,,160,,,,,,160,1,Raw,B,Czechia
Lukáš Chmela,M,36,81.7,82.5,O,,,,,,155,160,-165.5,,160,,,,,,160,1,Raw,B,Czechia
Dimitri Kukharenko,M,49,76.6,82.5,M2,,,,,,155,160,170,,170,,,,,,170,1,Raw,B,Spain
Robert Tomáš,M,45,80.1,82.5,M2,,,,,,140,-150,-150,,140,,,,,,140,2,Raw,B,Czechia
Jaromír Skalický,M,49,81.8,82.5,M2,,,,,,125,-132.5,-132.5,,125,,,,,,125,3,Raw,B,Czechia
Joaquim DaSilva,M,53,80.6,82.5,M3,,,,,,145,-150,-150,,145,,,,,,145,1,Raw,B,France
Mieczyslaw Marzka,M,63,82.3,82.5,M5,,,,,,100,107.5,,,107.5,,,,,,107.5,1,Raw,B,Germany
Jean Pierre Labrousse,M,62,81.3,82.5,M5,,,,,,90,92.5,95,,95,,,,,,95,2,Raw,B,France
Bill Healy,M,68,80.8,82.5,M6,,,,,,130,137.5,140,,140,,,,,,140,1,Raw,B,Ireland
Robert Drucker,M,81,81.3,82.5,M9,,,,,,87.5,90,95,,95,,,,,,95,1,Raw,B,France
Yannick Segura,M,15,85.6,90,T1,,,,,,85,92.5,95,,95,,,,,,95,1,Raw,B,France
Emilio Jose Lopez Izquierdo,M,23,87.1,90,J,,,,,,160,162.5,165,,165,,,,,,165,1,Raw,B,Spain
Tomáš Ryšavý,M,26,83.8,90,O,,,,,,190,200,205,,205,,,,,,205,1,Raw,B,Slovakia
Jani Loippo,M,26,89.5,90,O,,,,,,-180,190,200,,200,,,,,,200,2,Raw,B,Finland
Slavyan Stoicev,M,32,89.7,90,O,,,,,,165,172.5,-177.5,,172.5,,,,,,172.5,3,Raw,B,Bulgaria
Edward Dunne,M,40,83.3,90,M1,,,,,,150,165,-180,,165,,,,,,165,1,Raw,B,Ireland
Thierry le Roy,M,44,88.4,90,M1,,,,,,130,145,152.5,,152.5,,,,,,152.5,2,Raw,B,France
Tám Nguyen #1,M,47,83.2,90,M2,,,,,,140,150,160,,160,,,,,,160,1,Raw,B,Slovakia
Alexis Andres,M,45,85.4,90,M2,,,,,,120,-127.5,127.5,,127.5,,,,,,127.5,2,Raw,B,France
Tilo Kupper,M,53,88.3,90,M3,,,,,,150,155,157.5,,157.5,,,,,,157.5,1,Raw,B,Switzerland
Hartmut Ewert,M,59,84.3,90,M4,,,,,,140,145,-150,,145,,,,,,145,1,Raw,B,Germany
Jean-François Denis,M,61,88.7,90,M5,,,,,,165,175,-177.5,,175,,,,,,175,1,Raw,B,France
Guilllaume Koenig,M,17,92,100,T2,,,,,,112.5,120,122.5,,122.5,,,,,,122.5,1,Raw,B,France
Max Glok,M,16,91.3,100,T2,,,,,,107.5,112.5,120,,120,,,,,,120,2,Raw,B,Germany
Michael Ozun,M,19,94.9,100,T3,,,,,,122.5,132.5,-142.5,,132.5,,,,,,132.5,1,Raw,B,Ireland
Patrik Till,M,21,97.8,100,J,,,,,,-190,190,200,-213.5,200,,,,,,200,1,Raw,B,Czechia
Petr Novák,M,40,96.3,100,O,,,,,,185,195,-205,,195,,,,,,195,1,Raw,B,Czechia
Ger Twomey,M,37,98.8,100,O,,,,,,180,187.5,-197.5,,187.5,,,,,,187.5,2,Raw,B,Ireland
Jan Habart,M,41,97.4,100,M1,,,,,,211,212.5,-215,,212.5,,,,,,212.5,1,Raw,B,Germany
Stanislav Tůma,M,41,98,100,M1,,,,,,160,170,180,,180,,,,,,180,2,Raw,B,Czechia
Christian Vagner,M,46,95.4,100,M2,,,,,,130,140,145,,145,,,,,,145,1,Raw,B,France
Andris Zalitis,M,54,97.4,100,M3,,,,,,135,140,-145,,140,,,,,,140,1,Raw,B,Latvia
Pascal LeBlanc,M,55,93.8,100,M4,,,,,,137.5,140,-142.5,,140,,,,,,140,1,Raw,B,France
Marc Assirelli,M,69,97.6,100,M6,,,,,,130,135,137.5,-140.5,137.5,,,,,,137.5,1,Raw,B,France
Vladimír Svoboda,M,65,92.5,100,M6,,,,,,105,110,,,110,,,,,,110,2,Raw,B,Czechia
Ádám Jakubek,M,17,108.5,110,T2,,,,,,130,-140,140,,140,,,,,,140,1,Raw,B,Slovakia
Stanislav Močkor,M,21,107.2,110,J,,,,,,200,205,-207.5,,205,,,,,,205,1,Raw,B,Slovakia
Ioannis Krokos,M,20,107.5,110,J,,,,,,170,175,-180,,175,,,,,,175,2,Raw,B,Luxembourg
Vlastimil Kužel,M,40,107.3,110,O,,,,,,230,247.5,250,,250,,,,,,250,1,Raw,B,Czechia
Róbert Svanczár,M,32,105.4,110,O,,,,,,195,205,210,,210,,,,,,210,2,Raw,B,Slovakia
Fabien Lambiel,M,43,103,110,M1,,,,,,135,142.5,150,,150,,,,,,150,1,Raw,B,France
Vitalii Beloborodov,M,49,105.8,110,M2,,,,,,-160,165,-172.5,,165,,,,,,165,1,Raw,B,Moldova
Robert Brasseur,M,57,104.2,110,M4,,,,,,130,-135,-135,,130,,,,,,130,1,Raw,B,France
Christian Lucas,M,61,101.6,110,M5,,,,,,137.5,-142.5,-142.5,,137.5,,,,,,137.5,1,Raw,B,France
Roman Petrás,M,23,118.2,125,J,,,,,,190,-195,-195,,190,,,,,,190,1,Raw,B,Czechia
Frantisek Pazout,M,26,111.3,125,O,,,,,,200,210,-225,,210,,,,,,210,2,Raw,B,Czechia
Cvetan Velin,M,29,110.5,125,O,,,,,,200,210,-222.5,,210,,,,,,210,1,Raw,B,Bulgaria
Sonny Callewaert,M,37,120.4,125,O,,,,,,160,165,-170,,165,,,,,,165,3,Raw,B,France
Milan Kohout,M,45,113.8,125,M2,,,,,,180,190,-200,,190,,,,,,190,1,Raw,B,Czechia
Laurent Jacques,M,48,125.3,140,M2,,,,,,160,170,-175,,170,,,,,,170,1,Raw,B,France
Vincent Grandamme,M,28,158.2,140+,O,,,,,,160,170,-180,,170,,,,,,170,1,Raw,B,France
Rehana Maniar,F,43,67,67.5,M1,160,190,201,,201,-90,90,102.5,,102.5,-150,-150,150,,150,453.5,1,Multi-ply,SBD,Ireland
Charlotte Wareing,F,55,104.3,110,M4,177.5,190,200,,200,100,105,-107.5,,105,180,195,-200,,195,500,1,Multi-ply,SBD,UK
Jana Majorová,F,25,87,90,O,230,240,250,,250,-120,,,,,,,,,,,DQ,Multi-ply,SBD,Czechia
Jonathan Bar,M,22,62.4,67.5,J,147.5,155,160,,160,92.5,-97.5,-97.5,,92.5,175,-182.5,-182.5,,175,427.5,1,Multi-ply,SBD,France
Gérard Dufour,M,69,74.1,75,M6,-140,140,160,-178,160,95,105,110,,110,170,190,211,,211,481,1,Multi-ply,SBD,France
Ilkka Naskali,M,28,82.3,82.5,O,-260,-260,-260,,,-210,,,,,,,,,,,DQ,Multi-ply,SBD,Finland
Frédéric Parmentier,M,41,77.7,82.5,M1,180,200,-210,,200,120,130,-140,,130,180,190,205,,205,535,1,Multi-ply,SBD,France
Edgars Peterlēvics,M,31,83.8,90,O,275,290,300,,300,-235,235,-245,,235,240,252.5,-257.5,,252.5,787.5,1,Multi-ply,SBD,Latvia
Michal Červinka,M,58,88.6,90,M4,220,230,-237.5,,230,115,122.5,130,,130,195,210,-220,,210,570,1,Multi-ply,SBD,Slovakia
Robert Graham #1,M,52,97.1,100,M3,230,260,-280,,260,120,160,175,,175,200,220,230,,230,665,1,Multi-ply,SBD,UK
Libor Hurdálek,M,63,99.2,100,M5,220,235,240,,240,155,160,170,171,170,190,210,220,,220,630,1,Multi-ply,SBD,Czechia
Eric Bar,M,49,107.5,110,M2,205,,,,205,215,-222.5,-222.5,,215,242.5,-260,260,,260,680,1,Multi-ply,SBD,France
Jani Toivo Kristian Ihalainen,M,42,114.1,125,M1,205,220,-235,,220,200,-220,-230,,200,-200,215,262.5,,262.5,682.5,1,Multi-ply,SBD,Finland
Julie Marlats,F,29,65.3,67.5,O,132.5,142.5,150,,150,,,,,,,,,,,150,1,Wraps,S,France
Ellen Tobin Hogan,F,24,64.5,67.5,O,70,80,-100,,80,,,,,,,,,,,80,2,Wraps,S,Ireland
Charlotte Wareing,F,55,106.3,110,M4,160,170,180,,180,,,,,,,,,,,180,1,Wraps,S,UK
Jason Bar,M,15,56.9,60,T1,80,90,95,100,95,,,,,,,,,,,95,1,Wraps,S,France
Samsat Tom Leckloksavang,M,25,63.6,67.5,O,-105,-105,,,,,,,,,,,,,,,DQ,Wraps,S,France
Antoine Bonhomme,M,18,74.4,75,T3,145,155,165,,165,,,,,,,,,,,165,1,Wraps,S,France
Ivan Stanković,M,43,74.3,75,M1,210,225,235,-242.5,235,,,,,,,,,,,235,1,Wraps,S,Serbia
Aldo Michaux,M,42,72,75,M1,160,170,180,,180,,,,,,,,,,,180,1,Wraps,S,France
Guylhem Feraud,M,73,73.3,75,M7,115,125,-135,,125,,,,,,,,,,,125,1,Wraps,S,France
Isaac Walker,M,26,78.7,82.5,O,160,175,200,,200,,,,,,,,,,,200,1,Wraps,S,Ireland
Bertrand Couvercelle,M,40,80.9,82.5,M1,187.5,200,-210,,200,,,,,,,,,,,200,1,Wraps,S,France
Mieczysłąw Maczka,M,63,82.2,82.5,M5,100,,,,100,,,,,,,,,,,100,1,Wraps,S,Germany
Bill Healy,M,68,81,82.5,M6,195,205,-215,,205,,,,,,,,,,,205,1,Wraps,S,Ireland
Konrad Majocha,M,20,88.8,90,J,170,185,200,,200,,,,,,,,,,,200,1,Wraps,S,Poland
Michael Ozun,M,19,98.2,100,T3,160,-185,-200,,160,,,,,,,,,,,160,1,Wraps,S,Ireland
Jan Sztefek,M,35,98,100,O,220,-230,-240,,220,,,,,,,,,,,220,1,Wraps,S,Czechia
Grzegorz Drewniany,M,41,98,100,M1,200,220,230,,230,,,,,,,,,,,230,1,Wraps,S,Poland
Stephane Bouton,M,46,96.9,100,M2,170,182.5,195,,195,,,,,,,,,,,195,1,Wraps,S,France
Wiesław Wrŏbel,M,61,99.7,100,M5,200,220,230,,230,,,,,,,,,,,230,1,Wraps,S,Poland
Janusz Witkowski,M,58,108.2,110,M4,180,190,200,,200,,,,,,,,,,,200,1,Wraps,S,Poland
Sergey Starodubskiy,M,40,116.7,125,M1,270,292.5,,,292.5,,,,,,,,,,,292.5,1,Wraps,S,Russia
Emily Bailey #1,F,24,42,44,O,30,,,,30,25,,,,25,70,95,-103,103,95,150,1,Wraps,SBD,UK
Tereza Rybová,F,22,46.4,48,J,95,100,102.5,,102.5,50,52.5,-55,,52.5,115,125,127.5,,127.5,282.5,1,Wraps,SBD,Czechia
Sabine Guillaume,F,54,46.3,48,M3,90,-100,100,,100,52.5,-57.5,-57.5,,52.5,120,130,-132.5,,130,282.5,1,Wraps,SBD,France
Anna Eggleton,F,33,51.3,52,O,115,-122.5,-123,,115,55,60,-65,,60,130,137.5,141,,141,316,1,Wraps,SBD,UK
Tereza Mlýnková,F,25,49.1,52,O,80,-90,90,,90,-47.5,50,55,,55,120,127.5,-132.5,,127.5,272.5,2,Wraps,SBD,Czechia
Lara Valjavec,F,23,54.1,56,J,117.5,122.5,127.5,,127.5,60,-65,65,,65,142.5,150,-155,-155,150,342.5,1,Wraps,SBD,Slovenia
Lucija Slovša,F,22,54.6,56,J,107.5,115,-120,,115,-57.5,57.5,-62.5,,57.5,135,145,-147.5,,145,317.5,2,Wraps,SBD,Slovenia
Lorraine Balbiani,F,23,55,56,J,82.5,90,-97.5,,90,60,-65,-65,,60,-110,110,-120,,110,260,3,Wraps,SBD,France
Rachel Perrin,F,41,55.5,56,M1,120,127.5,133,,133,60,65,-67.5,,65,120,130,140,,140,338,1,Wraps,SBD,France
Audrey Le Vaillant,F,21,59.2,60,J,120,125,-130,,125,55,57.5,-60,,57.5,150,160.5,-162.5,,160.5,343,1,Wraps,SBD,France
Kelly Brown #1,F,28,59.5,60,O,165,-180,180,,180,75,80,85,,85,170,182.5,-190,,182.5,447.5,1,Wraps,SBD,UK
Bianca Decker,F,32,59.4,60,O,130,140,145,,145,-85,85,-91,,85,145,155,160,,160,390,2,Wraps,SBD,Germany
Ellen Freeborn,F,26,59.7,60,O,140,147.5,-152.5,,147.5,65,-70,-70,,65,140,-150,150,,150,362.5,3,Wraps,SBD,UK
Kahina Nait Messaoud,F,27,59.7,60,O,90,95,100,,100,45,50,-55,,50,100,110,-116,,110,260,4,Wraps,SBD,France
Julie Davis #1,F,42,59.4,60,M1,130,135,142.5,-150.5,142.5,70,75,80,-85.5,80,150,160,165,,165,387.5,1,Wraps,SBD,UK
Val Swaine,F,62,56.5,60,M5,60,70,75,-80,75,-40,40,41,,41,117.5,-125,-125,,117.5,233.5,1,Wraps,SBD,UK
Radostina Lulova,F,25,66.2,67.5,O,162.5,172.5,180,,180,80,82.5,-85,,82.5,170,180,187.5,,187.5,450,1,Wraps,SBD,Bulgaria
Teja Drašler,F,27,65.8,67.5,O,112.5,117.5,125,,125,70,-75,75,,75,140,145,152.5,,152.5,352.5,2,Wraps,SBD,Slovenia
Julie Marlats,F,29,65.9,67.5,O,130,140,-145,,140,65,70,-75,,70,120,130,-140,,130,340,3,Wraps,SBD,France
Ellen Tobin Hogan,F,24,60.3,67.5,O,70,-82.5,-90,,70,30,40,42.5,,42.5,100,110,115,,115,227.5,4,Wraps,SBD,Ireland
Céline Corringer,F,41,64.6,67.5,M1,85,92.5,-100,,92.5,40,-42.5,42.5,,42.5,115,122.5,-130,,122.5,257.5,1,Wraps,SBD,France
Sharon Cooke,F,48,63,67.5,M2,-100,100,-107.5,,100,40,45,47.5,,47.5,120,130,135,,135,282.5,1,Wraps,SBD,UK
Lesley Jayne Thomas,F,52,65.2,67.5,M3,-130,130,-142.5,-145,130,70,76,-80,,76,150,157.5,162.5,,162.5,368.5,1,Wraps,SBD,UK
Tetiana Brodetska,F,22,72.5,75,J,180,190,-200,,190,-90,90,92.5,,92.5,165,-172.5,,,165,447.5,1,Wraps,SBD,Ukraine
Marianne Hartio,F,25,68.4,75,O,-145,-145,145,,145,90,-95,-95,,90,140,145,155,,155,390,1,Wraps,SBD,Finland
Kaja Zupanic,F,29,73.5,75,O,110,117.5,125,,125,65,-67.5,-67.5,,65,140,147.5,155,,155,345,2,Wraps,SBD,Slovenia
Emma Jane Smith,F,32,79.2,82.5,O,155,-165,-165,,155,65,70,75,,75,152.5,162.5,170,,170,400,1,Wraps,SBD,UK
Angeline Berva,F,24,80.7,82.5,O,115,122.5,-130,,122.5,72.5,75,77.5,,77.5,150,155,-160,,155,355,2,Wraps,SBD,France
Tammi Lummes,F,43,79.9,82.5,M1,100,-110,-110,,100,45,50,-60,,50,160,170,-175,,170,320,1,Wraps,SBD,UK
Lisa Simmonette,F,27,99.3,110,O,130,140,150,,150,90,95,102.5,,102.5,160,175,182.5,,182.5,435,1,Wraps,SBD,UK
Kristína Fečová,F,20,61.4,67.5,J,120,-140,-140,,120,,,,,,,,,,,120,1,Multi-ply,S,Slovakia
Charlotte Wareing,F,55,106.3,110,M4,180,190,-201,,190,,,,,,,,,,,190,1,Multi-ply,S,UK
Jonathan Bar,M,22,63.6,67.5,J,147.5,155,-162.5,,155,,,,,,,,,,,155,1,Multi-ply,S,France
Burkhard Steffen,M,67,72.8,75,M6,135,150,160,,160,,,,,,,,,,,160,1,Multi-ply,S,Germany
Ilkka Naskali,M,28,79.9,82.5,O,200,220,240.5,245,240.5,,,,,,,,,,,240.5,1,Multi-ply,S,Finland
Mierczyslaw Maczka,M,63,82.2,82.5,M5,100,,,,100,,,,,,,,,,,100,1,Multi-ply,S,Germany
Milija Antić,M,47,87,90,M2,-120,120,150,,150,,,,,,,,,,,150,1,Multi-ply,S,Serbia
Simon Stopar,M,34,92.7,100,O,315,-330,330,,330,,,,,,,,,,,330,1,Multi-ply,S,Slovenia
Michal Červinka,M,58,92.6,100,M4,220,235,240,,240,,,,,,,,,,,240,1,Multi-ply,S,Slovakia
Jani Toivo Kristian Ihalainen,M,42,106.1,110,M1,212.5,215,220,225,220,,,,,,,,,,,220,1,Multi-ply,S,Finland
Péter Pintér,M,33,115.9,125,O,320,340,-345,,340,,,,,,,,,,,340,1,Multi-ply,S,Slovakia
Vivien Are,M,28,56,56,O,115,130,-150,,130,60,70,-77.5,,70,127.5,140,-145,,140,340,1,Wraps,SBD,France
Jason Bar,M,15,55.3,56,T1,85,90.5,93,,93,47.5,52.5,-55,,52.5,92.5,103,,,103,248.5,1,Wraps,SBD,France
Dylan Dibetta,M,19,58.2,60,T3,110,130,-150,,130,-103,103,-105.5,,103,160,193,-200.5,,193,426,1,Wraps,SBD,France
Alexandre Mick,M,20,65.2,67.5,J,120,130,135,,135,90,95,-100,,95,160,170,180,,180,410,1,Wraps,SBD,France
Samsat Tom Leckloksavang,M,25,64.3,67.5,O,100,110,-120,,110,70,75,77.5,,77.5,140,150,160,,160,347.5,1,Wraps,SBD,France
Jerome Latscha,M,41,65.8,67.5,M1,-150,150,-162.5,,150,95,100,-102.5,,100,185,195,-205,,195,445,1,Wraps,SBD,France
Antoine Bonhomme,M,18,73.8,75,T3,140,155,162.5,,162.5,95,102.5,-107.5,,102.5,140,152.5,162.5,,162.5,427.5,1,Wraps,SBD,France
Kamil Tůma,M,34,73.5,75,O,215,-222.5,-222.5,,215,-150,150,-155,,150,240,-252.5,-252.5,,240,605,1,Wraps,SBD,Czechia
Dan Copet,M,28,74.3,75,O,152.5,162.5,170,,170,92.5,100,-110,,100,200,210,-220,,210,480,2,Wraps,SBD,France
Tomáš Šesták,M,44,74.4,75,M1,190,200,-210,,200,110,-117.5,-117.5,,110,210,230,-250.5,,230,540,1,Wraps,SBD,Czechia
Aldo Michaux,M,42,72,75,M1,150,165,175,,175,100,110,115,,115,160,175,180,,180,470,2,Wraps,SBD,France
Jozef Gabrhel,M,62,71.4,75,M5,130,140,145,,145,90,95,-100,,95,155,165,170,,170,410,1,Wraps,SBD,Slovakia
Jean Palicot,M,65,74.6,75,M6,110,120,130,,130,75,80,-82.5,,80,140,160,165,,165,375,1,Wraps,SBD,France
Liam Turnbull,M,18,81.2,82.5,T3,172.5,185,195,,195,112.5,-120,-125,,112.5,180,190,200,,200,507.5,1,Wraps,SBD,UK
Antoine Caruel,M,21,82,82.5,J,207.5,215,-230,,215,145,155,165,,165,245,-260,-270,,245,625,1,Wraps,SBD,France
Ismael Meziti,M,27,82.4,82.5,O,210,220,230,,230,160,-167.5,-167.5,,160,260,270,280,,280,670,1,Wraps,SBD,France
Scott Britton,M,30,79.4,82.5,O,212.5,222.5,230,,230,145,-150,-150,,145,215,225,230,,230,605,2,Wraps,SBD,UK
Luc Sablonnieres,M,24,78.2,82.5,O,205,220,,,220,127.5,137.5,,,137.5,-235,235,242.5,,242.5,600,3,Wraps,SBD,France
Terry Boivin,M,26,81.1,82.5,O,177.5,190,-200,,190,100,-105,-105,,100,195,210,220,,220,510,4,Wraps,SBD,France
Anthony Thuillier,M,28,81.6,82.5,O,150,155,-157.5,,155,105,-110,-110,,105,160,170,175,,175,435,5,Wraps,SBD,France
Marvin L'Huillier,M,26,79.7,82.5,O,140,-150,-150,,140,70,82.5,-90,,82.5,170,185,-195,,185,407.5,6,Wraps,SBD,France
Horvath Zsolt,M,43,78.9,82.5,M1,200,220,-230,,220,130,135,-140,,135,230,240,-252.5,,240,595,1,Wraps,SBD,Hungary
Frederic Hoareau,M,40,81.6,82.5,M1,-190,-190,190,,190,125,-130,130,,130,190,200,210,,210,530,2,Wraps,SBD,France
Frédéric Parmentier,M,41,77.1,82.5,M1,180,190,200,,200,110,120,-125,,120,180,192.5,200,,200,520,3,Wraps,SBD,France
Bill Healy,M,68,80.9,82.5,M6,210,-220,,,210,130,140,-147.5,,140,225,-232.5,,,225,575,1,Wraps,SBD,Ireland
Ulrich Mielich,M,78,75.7,82.5,M8,65,70,75,,75,50,55,57.5,,57.5,95,105,115,,115,247.5,1,Wraps,SBD,Germany
Ondřej Kasal,M,19,87.9,90,T3,165,175,-182.5,,175,100,-107.5,-107.5,,100,200,222.5,-230,,222.5,497.5,1,Wraps,SBD,Czechia
Jaroslav Žuffa,M,21,89.3,90,J,260,285,297.5,,297.5,155,167.5,172.5,,172.5,-265,285,-295,,285,755,2,Wraps,SBD,Slovakia
Bvinder Singh Barrah,M,20,88.7,90,J,260,280,-290,,280,180,-192.5,-192.5,,180,280,295,-305,,295,755,1,Wraps,SBD,UK
Axel Ravinet,M,21,87.9,90,J,240,250,260,,260,162.5,170,,,170,245,260,,,260,690,3,Wraps,SBD,France
Nik Stefančič,M,23,88.4,90,J,195,205,215,,215,122.5,127.5,-130,,127.5,242.5,252.5,260,,260,602.5,4,Wraps,SBD,Slovenia
Simon Stopar,M,34,88.9,90,O,-300,300,320,,320,165,170,-175,,170,290,305,-315,,305,795,1,Wraps,SBD,Slovenia
Steven Sepp,M,25,89,90,O,230,240,250,,250,160,165,-167.5,,165,260,280,-285,,280,695,2,Wraps,SBD,UK
Fabrice Logli,M,27,89.8,90,O,220,230,235,,235,155,165,-170,,165,230,247.5,255,,255,655,3,Wraps,SBD,France
Jani Loippo,M,26,89.3,90,O,160,-190,190,,190,160,170,-180,,170,220,250,-260,,250,610,4,Wraps,SBD,Finland
Sébastien Guerin,M,31,86.9,90,O,185,-195,-195,,185,160,-167.5,-167.5,,160,220,230,-250,,230,575,5,Wraps,SBD,France
Claude Ngoma,M,28,87.4,90,O,-180,-180,-180,,,130,-135,135,,135,-180,,,,,,DQ,Wraps,SBD,France
Thierry le Roy,M,44,88.5,90,M1,180,200,215,,215,130,140,150,,150,230,240,-245,,240,605,1,Wraps,SBD,France
Peter Herák,M,57,87.7,90,M4,-230,-230,230,,230,122.5,127.5,130,,130,230,240,250,,250,610,1,Wraps,SBD,Slovakia
Peter Kutner,M,68,83.1,90,M6,145,155,162.5,,162.5,70,77.5,-82.5,,77.5,175,185,-195,,185,425,1,Wraps,SBD,Czechia
James Booth,M,19,98.9,100,T3,197.5,210,220,,220,110,120,125,,125,235,250,255,,255,600,1,Wraps,SBD,UK
Jan Roblek,M,23,99.5,100,J,260,280,290,,290,170,177.5,182.5,,182.5,290,305,-312.5,,305,777.5,1,Wraps,SBD,Slovenia
Stefan Schultheiß,M,23,90.6,100,J,235,255,-265,,255,160,167.5,-170,,167.5,240,260,-277.5,,260,682.5,2,Wraps,SBD,Germany
Greg Steele #1,M,23,95.8,100,J,220,230,237.5,,237.5,140,150,157.5,,157.5,255,265,275,,275,670,3,Wraps,SBD,UK
Matej Šemrl,M,25,97.2,100,O,270,290,300,,300,160,167.5,172.5,,172.5,275,-292.5,-292.5,,275,747.5,1,Wraps,SBD,Slovenia
Luka Kaver,M,30,98.2,100,O,245,255,-262.5,,255,150,160,-165,,160,255,265,272.5,,272.5,687.5,2,Wraps,SBD,Slovenia
Kamen Momchilov,M,32,96.4,100,O,-230,-235,240,,240,140,145,150,,150,257.5,270,277.5,,277.5,667.5,3,Wraps,SBD,Bulgaria
Alexandre Saingery,M,29,96.2,100,O,220,-240,-240,,220,127.5,135,-140,,135,235,250,255,,255,610,4,Wraps,SBD,France
Martin Horák,M,41,97.8,100,M1,215,222.5,230,,230,160,165,-170,,165,220,235,245,,245,640,1,Wraps,SBD,Czechia
Stephane Bouton,M,46,97.1,100,M2,185,200,210,,210,115,125,135,,135,190,205,-215,,205,550,1,Wraps,SBD,France
Lionel Michot,M,53,98.7,100,M3,165,175,-180,,175,110,115,-120,,115,200,215,230,,230,520,1,Wraps,SBD,France
Vladimír Svoboda,M,65,93.6,100,M6,145,155,160,,160,105,110,115,,115,150,160,170,,170,445,1,Wraps,SBD,Czechia
Cyril Menart,M,41,106.8,110,M1,-190,200,220,,220,160,170,180,,180,230,250,260,,260,660,1,Wraps,SBD,France
Martin Kolodžej,M,44,102.8,110,M1,200,212.5,-217.5,,212.5,110,-120,-120,,110,220,232.5,-240,,232.5,555,2,Wraps,SBD,Czechia
Stéphane Sana,M,43,101.9,110,M1,-200,200,-205,,200,120,-130,,,120,200,,,,200,520,3,Wraps,SBD,France
Jason Torche,M,32,103.7,110,O,-265,265,282.5,,282.5,200,-215,-215,,200,280,300,320,,320,802.5,1,Wraps,SBD,UK
Alexandar Pelovski,M,26,110,110,O,-270,270,-290,,270,200,-205,-205,,200,-290,290,315,,315,785,2,Wraps,SBD,Bulgaria
Robert Masson,M,27,105.1,110,O,310,325,,,325,160,165,167.5,,167.5,280,290,-297.5,,290,782.5,3,Wraps,SBD,Scotland
Dmytro Hotlashov,M,32,108.7,110,O,-285,285,300,,300,160,-170,-170,,160,292.5,-302.5,-305,,292.5,752.5,4,Wraps,SBD,Ukraine
Mehdy Ait Mohamed,M,31,104.8,110,O,215,232.5,242.5,,242.5,160,-170,170,,170,290,305,312.5,,312.5,725,5,Wraps,SBD,France
Nikola Sarić,M,23,121.3,125,J,295,320,330,-340,330,195,-202.5,202.5,-213,202.5,280,300,307.5,,307.5,840,1,Wraps,SBD,Serbia
Gregory Gossec,M,22,120.5,125,J,255,270,-275,,270,160,170,-172.5,,170,260,-270,,,260,700,2,Wraps,SBD,France
Jan Suda,M,39,116.8,125,O,280,302.5,315,,315,177.5,185,190,,190,270,285,-300,,285,790,1,Wraps,SBD,Czechia
Kristof de Coninck,M,32,117.1,125,O,-260,-260,-260,,,,,,,,,,,,,,DQ,Wraps,SBD,Belgium
Jean-Yves Becourt,M,48,116.1,125,M2,-195,195,-207.5,,195,155,160,-162.5,,160,195,-210,-210,,195,550,1,Wraps,SBD,France
Franck Loup,M,50,122.2,125,M3,225,250,270,280.5,270,-130,130,-150,,130,230,250,260,,260,660,1,Wraps,SBD,France
Alan Turner,M,60,114.7,125,M5,200,210,220,,220,130,140,150,,150,230,240,250,,250,620,1,Wraps,SBD,UK
Jonathan Ford,M,35,130.3,140,O,310,350,-370,,350,190,-210,-220,,190,270,-300,-300,,270,810,1,Wraps,SBD,UK
Ivan Niculescu,M,22,142.3,140+,J,265,280,291,-300,291,195,205,211,,211,280,-300,-300,,280,782,1,Wraps,SBD,Moldova
