Place,Name,State,Division,BodyweightKg,WeightClassKg,Squat1Kg,Squat2Kg,Squat3Kg,Best3SquatKg,Bench1Kg,Bench2Kg,Bench3Kg,Best3BenchKg,Deadlift1Kg,Deadlift2Kg,Deadlift3Kg,Best3DeadliftKg,TotalKg,Event,Country,BirthDate,Sex,Equipment,AgeRange
1,Glyn Belsher,NM,M-M3,100.8,105,,,,,130,140,-150,140,,,,,140,B,England,,M,Single-ply,59.5-68.5
1,Ben Hartley,NM,M-Jr,83,83,,,,,150,165,170,170,,,,,170,B,England,,M,Single-ply,18.5-22.5
DQ,Thomas Morgan,,M-O,90.9,93,,,,,-210,-210,-210,,,,,,,B,England,,M,Single-ply,
1,Graham Mellor,NM,M-O,165.6,120+,,,,,280,-300,300,300,,,,,300,B,England,,M,Single-ply,
1,Harvey Robinson,,M-O,118.3,120,,,,,312.5,317.5,322.5,322.5,,,,,322.5,B,,,M,Single-ply,
1,Glyn Belsher,NM,M-O,100.8,105,,,,,130,140,-150,140,,,,,140,B,England,,M,Single-ply,59.5-68.5
1,Ben Hartley,NM,M-O,83,83,,,,,150,165,170,170,,,,,170,B,England,,M,Single-ply,18.5-22.5
