Division,WeightClassKg,Place,Name,Team,BodyweightKg,Best3SquatKg,Best3BenchKg,Best3DeadliftKg,TotalKg,Equipment,Event,Sex
Boys,51.71,1,John Clerihew,Olney,51.17,133.81,77.11,151.95,362.87,Single-ply,SBD,M
Boys,51.71,2,Zach Ramirez,Decatur,50.44,122.47,68.04,124.74,315.25,Single-ply,SBD,M
Boys,51.71,3,Cameron Calame,Graham,50.71,115.67,74.84,117.93,308.44,Single-ply,SBD,M
Boys,51.71,4,Michael Ramsey,Cross Plains,47.17,106.59,61.23,133.81,301.64,Single-ply,SBD,M
Boys,51.71,5,Trevor Richard,Chico,50.17,106.59,54.43,117.93,278.96,Single-ply,SBD,M
Boys,55.79,6,Luis Berumen,Strawn,51.89,102.06,47.63,113.4,263.08,Single-ply,SBD,M
Boys,55.79,7,Andrew Hernandez,Electra,51.89,108.86,52.16,102.06,263.08,Single-ply,SBD,M
Boys,51.71,8,Marty Berumen,Strawn,46.45,95.25,56.7,102.06,254.01,Single-ply,SBD,M
Boys,51.71,9,Dylan Hooper,Oakridge School,50.35,86.18,47.63,95.25,229.06,Single-ply,SBD,M
Boys,51.71,10,Wesley Patteson,Santo,48.53,83.91,43.09,86.18,213.19,Single-ply,SBD,M
Boys,51.71,11,Brian Pafford,Godley,43.18,77.11,49.9,72.57,199.58,Single-ply,SBD,M
Boys,51.71,12,Austin Daniel,Electra,49.17,61.23,43.09,79.38,183.7,Single-ply,SBD,M
Boys,51.71,DQ,Ledarreyon Danielw,Fort Worth Polytechnic,43.91,70.31,38.56,,,Single-ply,SBD,M
Boys,51.71,DQ,Mitul Patel,Cross Plains,44.72,74.84,,,,Single-ply,SBD,M
Boys,51.71,DQ,Aaron Gonzales,Graham,50.98,124.74,,,,Single-ply,SBD,M
Boys,51.71,DQ,Michael Henderson,Santo,50.89,92.99,,,,Single-ply,SBD,M
Boys,55.79,DQ,Sngel Berumen,Strawn,51.89,102.06,47.63,,,Single-ply,SBD,M
Boys,55.79,1,Dillan Brown,Decatur,53.8,185.97,97.52,183.7,467.2,Single-ply,SBD,M
Boys,55.79,2,Nolan Newville,Decatur,52.62,158.76,92.99,172.37,424.11,Single-ply,SBD,M
Boys,55.79,3,Joey Salinas #1,Jacksboro,52.71,129.27,72.57,136.08,337.93,Single-ply,SBD,M
Boys,55.79,4,Dillon Gonzales,Graham,54.79,136.08,65.77,127.01,328.85,Single-ply,SBD,M
Boys,55.79,5,Nathan Smith #9,Glen Rose,55.7,111.13,68.04,140.61,319.78,Single-ply,SBD,M
Boys,55.79,6,Carlin Linnaberry,Glen Rose,53.98,117.93,68.04,117.93,303.91,Single-ply,SBD,M
Boys,55.79,7,Colton McWilliams,Cross Plains,55.07,108.86,47.63,129.27,285.76,Single-ply,SBD,M
Boys,55.79,8,Cole Dunson,Tolar,54.43,102.06,61.23,120.2,283.5,Single-ply,SBD,M
Boys,55.79,9,Walker Shelton,Tolar,55.61,106.59,61.23,115.67,283.5,Single-ply,SBD,M
Boys,55.79,10,Jesse Schubert,Dublin,55.25,99.79,43.09,106.59,249.48,Single-ply,SBD,M
Boys,55.79,11,Dillon Harvey,Mineral Wells,52.25,97.52,52.16,95.25,244.94,Single-ply,SBD,M
Boys,55.79,12,Michael Falla,Wichita Falls City View,52.34,68.04,47.63,90.72,206.38,Single-ply,SBD,M
Boys,55.79,DQ,Cody Blackstock,Paradise,54.43,,,,,Single-ply,SBD,M
Boys,55.79,DQ,Weston Decker,Peaster,54.07,131.54,,,,Single-ply,SBD,M
Boys,59.87,1,Walt Harden,Peaster,58.79,192.78,113.4,188.24,494.42,Single-ply,SBD,M
Boys,59.87,2,Alejandro Beltran,Decatur,58.51,181.44,102.06,181.44,464.93,Single-ply,SBD,M
Boys,59.87,3,Spencer Tilley,Pilot Point,59.24,151.95,74.84,131.54,358.34,Single-ply,SBD,M
Boys,59.87,4,Josiah Cansler,Perrin-Whitt,58.24,147.42,61.23,145.15,353.8,Single-ply,SBD,M
Boys,59.87,5,Thomas Haile,Cross Plains,58.97,136.08,74.84,142.88,353.8,Single-ply,SBD,M
Boys,59.87,6,Terry Johnson,Fort Worth Wyatt,56.7,111.13,68.04,156.49,335.66,Single-ply,SBD,M
Boys,59.87,7,Luis Flores,Chico,58.69,127.01,68.04,136.08,331.12,Single-ply,SBD,M
Boys,59.87,8,Chad Layton,Decatur,58.42,113.4,74.84,133.81,322.05,Single-ply,SBD,M
Boys,59.87,9,Dylan Horton,Graham,59.51,122.47,68.04,115.67,306.17,Single-ply,SBD,M
Boys,67.13,10,Chandler Gordon,Hillsboro,60.06,106.59,63.5,122.47,292.57,Single-ply,SBD,M
Boys,59.87,11,Samuel Rodriguez,Rising Star,58.97,113.4,61.23,113.4,288.03,Single-ply,SBD,M
Boys,59.87,12,Weston Clifton,Glen Rose,57.15,83.91,56.7,138.35,278.96,Single-ply,SBD,M
Boys,59.87,13,Tyler Byers,Chico,59.51,99.79,63.5,115.67,278.96,Single-ply,SBD,M
Boys,59.87,14,Tristen Stephenson,Cross Plains,58.97,97.52,52.16,113.4,263.08,Single-ply,SBD,M
Boys,59.87,15,Isaac Velasquez,Strawn,58.51,83.91,49.9,127.01,260.82,Single-ply,SBD,M
Boys,59.87,16,Callahan Storey,Paradise,56.61,97.52,54.43,104.33,256.28,Single-ply,SBD,M
Boys,59.87,17,Trey Willis,Oakridge School,59.87,72.57,43.09,113.4,229.06,Single-ply,SBD,M
Boys,59.87,DQ,Harper Mays,Peaster,57.79,142.88,,,,Single-ply,SBD,M
Boys,59.87,DQ,Bryce Partlow,Santo,59.6,92.99,,,,Single-ply,SBD,M
Boys,59.87,DQ,Brandon Hisaw,Graham,58.24,149.69,,,,Single-ply,SBD,M
Boys,59.87,DQ,Lucas Ramsey,Meridian,59.78,90.72,,,,Single-ply,SBD,M
Boys,67.13,1,Levi Bamber,Dublin,63.78,204.12,138.35,201.85,544.31,Single-ply,SBD,M
Boys,74.84,2,Ben Song,Oakridge School,67.36,185.97,113.4,185.97,485.34,Single-ply,SBD,M
Boys,74.84,3,Randy Tucker,Perrin-Whitt,67.31,172.37,102.06,179.17,453.59,Single-ply,SBD,M
Boys,67.13,4,Juan Martinez,Graham,62.69,151.95,106.59,161.03,419.57,Single-ply,SBD,M
Boys,67.13,5,Nick Davila,Millsap,63.41,156.49,86.18,176.9,419.57,Single-ply,SBD,M
Boys,67.13,6,Cotton Hill,Rising Star,61.87,136.08,79.38,185.97,401.43,Single-ply,SBD,M
Boys,67.13,7,Dalton Pullin,Seymour,64.23,151.95,83.91,165.56,401.43,Single-ply,SBD,M
Boys,67.13,8,Chase Reynolds,Paradise,64.77,149.69,92.99,154.22,396.89,Single-ply,SBD,M
Boys,67.13,9,Antonio Balcazar,Fort Worth Wyatt,66.32,142.88,81.65,170.1,394.63,Single-ply,SBD,M
Boys,67.13,10,Tyler Perkins,Comanche,64.68,136.08,88.45,149.69,374.21,Single-ply,SBD,M
Boys,67.13,11,Blaze Lynn,Electra,65.59,142.88,77.11,154.22,374.21,Single-ply,SBD,M
Boys,67.13,12,Jess Goodwin,Meridian,65.05,136.08,77.11,158.76,371.95,Single-ply,SBD,M
Boys,67.13,13,Kelton Dethloff,Paradise,64.68,147.42,70.31,147.42,365.14,Single-ply,SBD,M
Boys,67.13,14,Josh Stelzer,Graham,66.68,133.81,83.91,147.42,365.14,Single-ply,SBD,M
Boys,67.13,15,Donald Coffman,Glen Rose,64.14,113.4,72.57,158.76,344.73,Single-ply,SBD,M
Boys,67.13,16,Keith McAnally,Glen Rose,66.13,127.01,61.23,154.22,342.46,Single-ply,SBD,M
Boys,67.13,17,Cooper Townsley,Oakridge School,64.14,108.86,83.91,145.15,337.93,Single-ply,SBD,M
Boys,67.13,18,Francisco Vera,Fort Worth Polytechnic,66.04,111.13,95.25,129.27,335.66,Single-ply,SBD,M
Boys,67.13,19,Daniel Sánchez,Rising Star,62.6,113.4,79.38,140.61,333.39,Single-ply,SBD,M
Boys,67.13,20,Bobby Wells,Strawn,66.04,108.86,70.31,136.08,315.25,Single-ply,SBD,M
Boys,67.13,21,Jarrwett Wilson,Pilot Point,64.05,120.2,74.84,117.93,312.98,Single-ply,SBD,M
Boys,67.13,22,Seth Librado,Hillsboro,66.13,117.93,61.23,131.54,310.71,Single-ply,SBD,M
Boys,67.13,23,Angus Worcester,Cross Plains,66.04,111.13,61.23,131.54,303.91,Single-ply,SBD,M
Boys,67.13,24,Garrett Trotter,Glen Rose,63.32,111.13,61.23,124.74,297.1,Single-ply,SBD,M
Boys,67.13,25,Ricardo Carrillo,Wichita Falls City View,66.86,113.4,68.04,111.13,292.57,Single-ply,SBD,M
Boys,67.13,26,Eli Hatfield,Electra,61.87,102.06,52.16,124.74,278.96,Single-ply,SBD,M
Boys,67.13,DQ,Cliant Codling,Chico,63.41,127.01,,,,Single-ply,SBD,M
Boys,67.13,DQ,Steven Blankenship,Graham,65.05,,,,,Single-ply,SBD,M
Boys,67.13,DQ,Jordan Wright,Meridian,60.78,147.42,,,,Single-ply,SBD,M
Boys,67.13,DQ,Casey Garrett,Meridian,62.05,113.4,,,,Single-ply,SBD,M
Boys,67.13,DQ,Jesse Herd,Jacksboro,66.86,136.08,83.91,,,Single-ply,SBD,M
Boys,67.13,DQ,Paedden Ross,Millsap,60.92,140.61,,,,Single-ply,SBD,M
Boys,67.13,DQ,Ismael Garcia,Mineral Wells,65.86,111.13,,,,Single-ply,SBD,M
Boys,67.13,DQ,Marcos Aviles,Mineral Wells,62.96,108.86,,,,Single-ply,SBD,M
Boys,74.84,1,Tri Hoang,Wichita Falls City View,69.22,195.04,90.72,219.99,505.76,Single-ply,SBD,M
Boys,74.84,2,Robert Maples,Pilot Point,74.66,195.04,108.86,201.85,505.76,Single-ply,SBD,M
Boys,74.84,3,Daniel Fielder,Mineral Wells,72.39,165.56,124.74,204.12,494.42,Single-ply,SBD,M
Boys,74.84,4,Jeremy Seay,Meridian,71.21,181.44,115.67,188.24,485.34,Single-ply,SBD,M
Boys,74.84,5,Dawson Hawthorne,Graham,73.21,179.17,117.93,183.7,480.81,Single-ply,SBD,M
Boys,74.84,6,Ramon Salazar,Jacksboro,72.12,199.58,106.59,170.1,476.27,Single-ply,SBD,M
Boys,74.84,7,Halston Delgado,Decatur,70.13,181.44,104.33,183.7,469.47,Single-ply,SBD,M
Boys,74.84,8,Michael Hohn,Oakridge School,73.66,149.69,102.06,213.19,464.93,Single-ply,SBD,M
Boys,74.84,9,Will Cawley,Graham,70.94,183.7,102.06,176.9,462.66,Single-ply,SBD,M
Boys,74.84,10,Leo Gonzalez,Mineral Wells,69.94,165.56,106.59,183.7,455.86,Single-ply,SBD,M
Boys,74.84,11,Dj Thomas,Jacksboro,72.94,174.63,83.91,192.78,451.32,Single-ply,SBD,M
Boys,82.1,12,Alec Apple,Rising Star,74.93,151.95,102.06,181.44,435.45,Single-ply,SBD,M
Boys,74.84,13,Lucas D'Agostino,Oakridge School,71.76,181.44,86.18,163.29,430.91,Single-ply,SBD,M
Boys,74.84,14,Josh McDowell,Paradise,72.12,174.63,88.45,161.03,424.11,Single-ply,SBD,M
Boys,82.1,15,Ray Bars,Fort Worth Polytechnic,75.07,147.42,102.06,174.63,424.11,Single-ply,SBD,M
Boys,74.84,16,Victor Velazquez,Chico,69.85,154.22,86.18,181.44,421.84,Single-ply,SBD,M
Boys,74.84,17,Brayden Frank,Oakridge School,67.59,147.42,102.06,161.03,410.5,Single-ply,SBD,M
Boys,74.84,18,Michael Elmore,Graham,74.12,154.22,108.86,136.08,399.16,Single-ply,SBD,M
Boys,74.84,19,Blake Eschbach,Glen Rose,69.94,142.88,81.65,165.56,390.09,Single-ply,SBD,M
Boys,74.84,20,Sean Pyburn,Comanche,70.58,147.42,90.72,149.69,387.82,Single-ply,SBD,M
Boys,74.84,21,Josh Mena,Glen Rose,72.12,142.88,81.65,158.76,383.29,Single-ply,SBD,M
Boys,74.84,22,Dakota Bomar,Cross Plains,69.94,133.81,63.5,158.76,356.07,Single-ply,SBD,M
Boys,74.84,23,Herik Bustamante,Rising Star,72.3,124.74,74.84,154.22,353.8,Single-ply,SBD,M
Boys,74.84,24,Cory Solomon,Tolar,70.03,133.81,68.04,140.61,342.46,Single-ply,SBD,M
Boys,74.84,25,Kyle Young #3,Chico,73.75,127.01,77.11,129.27,333.39,Single-ply,SBD,M
Boys,74.84,26,Austin Garcia,Paradise,71.49,113.4,74.84,138.35,326.59,Single-ply,SBD,M
Boys,74.84,27,Austin Schaffer,Oakridge School,73.57,97.52,58.97,136.08,292.57,Single-ply,SBD,M
Boys,74.84,28,Dalton Scott,Pilot Point,74.3,111.13,61.23,92.99,265.35,Single-ply,SBD,M
Boys,74.84,DQ,Hayden Brown,Paradise,71.4,179.17,74.84,,,Single-ply,SBD,M
Boys,74.84,DQ,Azaleas Marez,Wichita Falls City View,72.3,92.99,,,,Single-ply,SBD,M
Boys,74.84,DQ,Jeremy Williams,Chico,72.85,,,,,Single-ply,SBD,M
Boys,74.84,DQ,Troy Simpson,Fort Worth Polytechnic,74.57,102.06,61.23,,,Single-ply,SBD,M
Boys,82.1,1,Kyle Saunders,Peaster,80.38,215.46,136.08,226.8,578.33,Single-ply,SBD,M
Boys,82.1,2,Terence Jackson,Wichita Falls City View,79.02,215.46,102.06,238.14,555.65,Single-ply,SBD,M
Boys,82.1,3,Miles Wilson,Oakridge School,81.47,210.92,115.67,208.65,535.24,Single-ply,SBD,M
Boys,82.1,4,Josh Tucker,Godley,75.66,204.12,95.25,226.8,526.17,Single-ply,SBD,M
Boys,82.1,5,Norman James,Wichita Falls City View,77.56,183.7,133.81,192.78,510.29,Single-ply,SBD,M
Boys,82.1,6,Bobby Byrd,Decatur,76.75,208.65,111.13,181.44,501.22,Single-ply,SBD,M
Boys,82.1,7,Blake Haney,Decatur,80.92,181.44,113.4,204.12,498.95,Single-ply,SBD,M
Boys,82.1,8,James Daniels,Fort Worth Wyatt,81.56,165.56,131.54,199.58,496.68,Single-ply,SBD,M
Boys,82.1,9,Grant von Wellsheim,Oakridge School,79.11,174.63,122.47,195.04,492.15,Single-ply,SBD,M
Boys,82.1,10,Tyler Cobb,Paradise,79.11,179.17,111.13,195.04,485.34,Single-ply,SBD,M
Boys,82.1,11,Sheldon Libey,Cross Plains,80.56,170.1,108.86,188.24,467.2,Single-ply,SBD,M
Boys,82.1,12,Carl Pendergrast,Rising Star,78.47,181.44,90.72,181.44,453.59,Single-ply,SBD,M
Boys,82.1,13,David Kennedy,Oakridge School,80.74,165.56,104.33,183.7,453.59,Single-ply,SBD,M
Boys,82.1,14,Scott Wood #3,Mineral Wells,81.19,151.95,102.06,185.97,439.98,Single-ply,SBD,M
Boys,82.1,15,Salvador Marquez,Comanche,77.29,172.37,99.79,165.56,437.72,Single-ply,SBD,M
Boys,82.1,16,Thomas Simpson,Glen Rose,80.01,140.61,106.59,181.44,428.64,Single-ply,SBD,M
Boys,82.1,17,Clay Brown,Millsap,75.57,149.69,117.93,154.22,421.84,Single-ply,SBD,M
Boys,82.1,18,Braylon Brooks,Graham,77.66,149.69,111.13,151.95,412.77,Single-ply,SBD,M
Boys,82.1,19,Maxwell Dixon,Peaster,80.38,158.76,102.06,142.88,403.7,Single-ply,SBD,M
Boys,82.1,20,Jacob Fleming,Graham,81.37,154.22,92.99,154.22,401.43,Single-ply,SBD,M
Boys,82.1,21,Jordan Carter,Paradise,80.92,151.95,104.33,142.88,399.16,Single-ply,SBD,M
Boys,82.1,22,Eric Ramirez,Decatur,75.57,156.49,88.45,149.69,394.63,Single-ply,SBD,M
Boys,82.1,23,Hunter Redmond,Glen Rose,80.47,151.95,77.11,165.56,394.63,Single-ply,SBD,M
Boys,82.1,24,Senen Gonzalez,Mineral Wells,78.38,142.88,102.06,147.42,392.36,Single-ply,SBD,M
Boys,82.1,25,Blain Eberts,Pilot Point,77.2,142.88,86.18,149.69,378.75,Single-ply,SBD,M
Boys,82.1,26,Ford Anderson,Tolar,76.57,115.67,56.7,142.88,315.25,Single-ply,SBD,M
Boys,82.1,27,Collin Conway,Oakridge School,77.56,106.59,68.04,136.08,310.71,Single-ply,SBD,M
Boys,82.1,28,Damian Hatcher,Dublin,76.11,99.79,88.45,120.2,308.44,Single-ply,SBD,M
Boys,82.1,29,Brannan Love,Meridian,77.93,83.91,63.5,113.4,260.82,Single-ply,SBD,M
Boys,82.1,DQ,Austin Hansen,Jacksboro,75.39,147.42,,,,Single-ply,SBD,M
Boys,82.1,DQ,Dawson Parrot,Olney,75.39,120.2,81.65,,,Single-ply,SBD,M
Boys,82.1,DQ,Nate Dawson,Chico,76.29,122.47,,,,Single-ply,SBD,M
Boys,89.81,1,Cameron Medford,Pilot Point,87.09,254.01,208.65,222.26,684.92,Single-ply,SBD,M
Boys,89.81,2,Robert Jones,Mineral Wells,87.77,199.58,124.74,204.12,528.44,Single-ply,SBD,M
Boys,89.81,3,Juan Quintana,Hillsboro,86,163.29,147.42,199.58,510.29,Single-ply,SBD,M
Boys,89.81,4,Damien Aparicio,Mineral Wells,86.36,176.9,131.54,199.58,508.02,Single-ply,SBD,M
Boys,89.81,5,Nick Lemmond,Seymour,85.28,190.51,115.67,185.97,492.15,Single-ply,SBD,M
Boys,89.81,6,Nolan O'Shea,Wichita Falls City View,86,179.17,99.79,188.24,467.2,Single-ply,SBD,M
Boys,89.81,7,Devin Daume,Graham,87.91,181.44,102.06,181.44,464.93,Single-ply,SBD,M
Boys,89.81,8,Antonio Murrillo,Jacksboro,83.01,158.76,83.91,151.95,394.63,Single-ply,SBD,M
Boys,89.81,9,Logan Douglas,Glen Rose,85,131.54,99.79,147.42,378.75,Single-ply,SBD,M
Boys,89.81,10,Alex Hurtado,Glen Rose,86.91,156.49,70.31,145.15,371.95,Single-ply,SBD,M
Boys,89.81,11,Jessy Johnson,Perrin-Whitt,82.55,131.54,88.45,147.42,367.41,Single-ply,SBD,M
Boys,89.81,12,Tyler Parrish,Electra,88.54,136.08,70.31,136.08,342.46,Single-ply,SBD,M
Boys,89.81,DQ,Zayne Gumler,Tolar,84.37,156.49,,,,Single-ply,SBD,M
Boys,99.79,1,Jimmy Johnson,Glen Rose,98.43,260.82,176.9,249.48,687.19,Single-ply,SBD,M
Boys,99.79,2,Keith Jones,Pilot Point,96.62,233.6,158.76,231.33,623.69,Single-ply,SBD,M
Boys,99.79,3,Eddie Avalos,Olney,96.8,251.74,145.15,224.53,621.42,Single-ply,SBD,M
Boys,99.79,4,Tyler Tennerson,Mineral Wells,92.53,210.92,167.83,199.58,578.33,Single-ply,SBD,M
Boys,99.79,5,Austin Thomas,Cross Plains,97.25,215.46,117.93,183.7,517.1,Single-ply,SBD,M
Boys,99.79,6,Anthony Garcia,Wichita Falls City View,93.89,215.46,102.06,195.04,512.56,Single-ply,SBD,M
Boys,99.79,7,David Whited,Wichita Falls City View,96.07,217.72,113.4,174.63,505.76,Single-ply,SBD,M
Boys,99.79,8,Dusty Rae,Graham,94.26,181.44,131.54,174.63,487.61,Single-ply,SBD,M
Boys,99.79,9,Riley Stottle,Pilot Point,98.16,195.04,136.08,156.49,487.61,Single-ply,SBD,M
Boys,99.79,10,Garrett Moening,Electra,92.8,174.63,92.99,215.46,483.08,Single-ply,SBD,M
Boys,99.79,11,Joel Elizondo,Comanche,91.35,195.04,127.01,154.22,476.27,Single-ply,SBD,M
Boys,99.79,12,Cole Selby,Decatur,94.62,181.44,106.59,181.44,469.47,Single-ply,SBD,M
Boys,99.79,13,Austin Williamson,Jacksboro,92.17,181.44,111.13,174.63,467.2,Single-ply,SBD,M
Boys,99.79,14,Aaron Abrego,Hillsboro,98.34,158.76,127.01,174.63,460.4,Single-ply,SBD,M
Boys,99.79,15,Logan Hrncirik,Seymour,91.44,151.95,97.52,165.56,415.04,Single-ply,SBD,M
Boys,99.79,16,Derek Baynes,Graham,98.52,165.56,92.99,156.49,415.04,Single-ply,SBD,M
Boys,99.79,17,Mac Prichard-Warren,Tolar,91.53,147.42,90.72,161.03,399.16,Single-ply,SBD,M
Boys,99.79,18,Zackary Woodruff,Paradise,91.99,147.42,90.72,154.22,392.36,Single-ply,SBD,M
Boys,99.79,19,Issachar Librado,Hillsboro,90.36,129.27,79.38,158.76,367.41,Single-ply,SBD,M
Boys,99.79,20,Alex Dolabi,Oakridge School,93.08,122.47,70.31,131.54,324.32,Single-ply,SBD,M
Boys,99.79,21,Jerry Don Fincher,Perrin-Whitt,90.26,97.52,68.04,102.06,267.62,Single-ply,SBD,M
Boys,99.79,DQ,Dalton Carter,Hillsboro,92.44,174.63,120.2,,,Single-ply,SBD,M
Boys,99.79,DQ,Robby Patchin,Jacksboro,98.16,170.1,,,,Single-ply,SBD,M
Boys,99.79,DQ,Preston Posuk,Cross Plains,91.35,149.69,,,,Single-ply,SBD,M
Boys,99.79,DQ,Jamarcus Jessie,Fort Worth Polytechnic,91.53,142.88,,,,Single-ply,SBD,M
Boys,109.77,1,Brett Mosher,Tolar,106.78,226.8,142.88,215.46,585.13,Single-ply,SBD,M
Boys,109.77,2,Justin Givens,Wichita Falls City View,102.51,215.46,115.67,215.46,546.58,Single-ply,SBD,M
Boys,109.77,3,Barrett Davidson,Graham,108.14,170.1,111.13,181.44,462.66,Single-ply,SBD,M
Boys,109.77,4,Brandon Abrego,Hillsboro,101.33,172.37,99.79,172.37,444.52,Single-ply,SBD,M
Boys,109.77,5,John Estrada,Fort Worth Polytechnic,105.6,111.13,65.77,117.93,294.84,Single-ply,SBD,M
Boys,109.77,DQ,Masdon Goodwin,Seymour,103.96,183.7,,,,Single-ply,SBD,M
Boys,109.77,DQ,Austin Accetwat,Pilot Point,106.05,,,,,Single-ply,SBD,M
Boys,124.74,1,Jackson Cunningham,Paradise,117.03,288.03,188.24,242.67,718.94,Single-ply,SBD,M
Boys,124.74,2,Damon Hinrichs,Millsap,115.39,249.48,165.56,208.65,623.69,Single-ply,SBD,M
Boys,124.74,3,Scotty Shartle,Meridian,115.39,226.8,147.42,235.87,610.08,Single-ply,SBD,M
Boys,124.74+,4,Allen Hodge,Hillsboro,124.96,231.33,136.08,235.87,603.28,Single-ply,SBD,M
Boys,124.74,5,Feyi Oyewole,Oakridge School,119.75,233.6,154.22,213.19,601.01,Single-ply,SBD,M
Boys,124.74,6,Zac Perez,Glen Rose,117.39,254.01,138.35,190.51,582.87,Single-ply,SBD,M
Boys,124.74,7,Zack Hetrick,Strawn,124.28,204.12,124.74,226.8,555.65,Single-ply,SBD,M
Boys,124.74,8,Nathan Paschal,Graham,118.12,233.6,122.47,197.31,553.38,Single-ply,SBD,M
Boys,124.74,9,Brandon Lane,Tolar,118.02,201.85,136.08,213.19,551.11,Single-ply,SBD,M
Boys,124.74,10,Pedro Salvador,Hillsboro,114.94,185.97,111.13,185.97,483.08,Single-ply,SBD,M
Boys,124.74,11,Ismael Martinez,Strawn,121.38,192.78,102.06,181.44,476.27,Single-ply,SBD,M
Boys,124.74,12,Jansen Fox,Rising Star,120.2,181.44,115.67,170.1,467.2,Single-ply,SBD,M
Boys,124.74,13,Julian Alcala,Glen Rose,114.03,170.1,97.52,165.56,433.18,Single-ply,SBD,M
Boys,124.74,14,Jorge Anguiano,Pilot Point,110.86,138.35,92.99,129.27,360.61,Single-ply,SBD,M
Boys,124.74,15,Dylan Hamilton,Godley,124.47,145.15,92.99,120.2,358.34,Single-ply,SBD,M
Boys,124.74,16,Nathan Graham,Wichita Falls City View,114.4,124.74,70.31,131.54,326.59,Single-ply,SBD,M
Boys,124.74,DQ,Tyler Williamson,Graham,116.75,226.8,,,,Single-ply,SBD,M
Boys,124.74,DQ,Matt Tucker,Jacksboro,110.86,156.49,,,,Single-ply,SBD,M
Boys,124.74,DQ,Marcus Trevino,Paradise,118.02,140.61,120.2,,,Single-ply,SBD,M
Boys,124.74,DQ,Zac Christian,Comanche,116.57,,,,,Single-ply,SBD,M
Boys,124.74+,1,Jesus Pinon,Meridian,131,281.23,195.04,260.82,737.09,Single-ply,SBD,M
Boys,124.74+,2,Ray Cortez,Decatur,137.89,249.48,165.56,256.28,671.32,Single-ply,SBD,M
Boys,124.74+,3,Jeffrey Cooley,Jacksboro,133.81,210.92,124.74,183.7,519.36,Single-ply,SBD,M
Boys,124.74+,4,Kyle Speicher,Godley,130.73,188.24,97.52,197.31,483.08,Single-ply,SBD,M
Boys,124.74+,5,Garrett Riggs,Millsap,125.28,183.7,104.33,185.97,474,Single-ply,SBD,M
Boys,124.74+,6,Edgar Salvador,Hillsboro,135.35,181.44,113.4,174.63,469.47,Single-ply,SBD,M
Boys,124.74+,7,Gavin Hespe,Tolar,137.17,195.04,102.06,165.56,462.66,Single-ply,SBD,M
Boys,124.74+,8,Bryce Torrance,Fort Worth Wyatt,142.43,136.08,111.13,170.1,417.3,Single-ply,SBD,M
