Division,WeightClassKg,Place,Name,Team,BodyweightKg,Best3SquatKg,Best3BenchKg,Best3DeadliftKg,TotalKg,Equipment,Event,Sex
Boys,55.79,1,Robert Chapa,Gregory-Portland,51.8,133.81,83.91,167.83,385.55,Single-ply,SBD,M
Boys,51.71,2,Gilbert Sanchez,San Diego,51.62,142.88,88.45,145.15,376.48,Single-ply,SBD,M
Boys,51.71,3,Daniel Chapa,Gregory-Portland,51.44,131.54,88.45,151.95,371.95,Single-ply,SBD,M
Boys,51.71,4,Bruizer Del Bosque,Bishop,46.45,120.2,70.31,136.08,326.59,Single-ply,SBD,M
Boys,51.71,5,Edward Davidson,Alice,51.26,102.06,52.16,111.13,265.35,Single-ply,SBD,M
Boys,51.71,6,Randy Castillo,Bruni,51.62,95.25,40.82,113.4,249.48,Single-ply,SBD,M
Boys,51.71,7,Hunter McElroy,Aransas Pass,47.08,81.65,52.16,90.72,224.53,Single-ply,SBD,M
Boys,51.71,8,Andy Torres,Gregory-Portland,43.09,81.65,49.9,88.45,219.99,Single-ply,SBD,M
Boys,55.79,1,Justin Breland,Banquete,55.43,124.74,97.52,163.29,385.55,Single-ply,SBD,M
Boys,55.79,2,Travis Charles,Bishop,55.25,149.69,74.84,158.76,383.29,Single-ply,SBD,M
Boys,55.79,3,Jeff Kearns,Gregory-Portland,55.25,133.81,77.11,145.15,356.07,Single-ply,SBD,M
Boys,55.79,4,Angel Solano,Bruni,55.16,115.67,58.97,163.29,337.93,Single-ply,SBD,M
Boys,55.79,5,Justin Gonzalez,San Diego,55.61,136.08,79.38,117.93,333.39,Single-ply,SBD,M
Boys,59.87,DQ,Michael Munoz,Bruni,55.97,86.18,,,,Single-ply,SBD,M
Boys,59.87,1,JJ Gonzalez,Gregory-Portland,59.69,176.9,104.33,183.7,464.93,Single-ply,SBD,M
Boys,59.87,2,Austin Munoz,Freer,59.15,136.08,92.99,195.04,424.11,Single-ply,SBD,M
Boys,59.87,3,Richard Brown #4,Orange Grove,59.78,147.42,70.31,167.83,385.55,Single-ply,SBD,M
Boys,59.87,4,Gabriel Ramirez,Ben Bolt-Palito Blanco,59.06,129.27,88.45,142.88,360.61,Single-ply,SBD,M
Boys,59.87,5,Rico Rodriguez,San Diego,59.87,129.27,79.38,147.42,356.07,Single-ply,SBD,M
Boys,67.13,6,Noe Diaz,Falfurrias,60.06,90.72,70.31,124.74,285.76,Single-ply,SBD,M
Boys,59.87,7,Tyler Pastrano,San Diego,59.42,97.52,56.7,104.33,258.55,Single-ply,SBD,M
Boys,59.87,8,Troy Tanguma,San Diego,59.87,65.77,58.97,115.67,240.4,Single-ply,SBD,M
Boys,67.13,DQ,Arnold Bueno,Banquete,59.96,108.86,,,,Single-ply,SBD,M
Boys,67.13,1,Rene Molina,Hebbronville,66.22,183.7,97.52,190.51,471.74,Single-ply,SBD,M
Boys,67.13,2,Miguel Oliva,Robstown,60.6,158.76,106.59,172.37,437.72,Single-ply,SBD,M
Boys,67.13,3,Mark Vasquez,Orange Grove,67.13,170.1,97.52,170.1,437.72,Single-ply,SBD,M
Boys,67.13,4,Tony Vivone,Gregory-Portland,66.32,161.03,74.84,154.22,390.09,Single-ply,SBD,M
Boys,67.13,5,Jay Trevino,Banquete,64.68,131.54,99.79,151.95,383.29,Single-ply,SBD,M
Boys,67.13,6,Ray Valdez,Orange Grove,60.69,136.08,77.11,154.22,367.41,Single-ply,SBD,M
Boys,67.13,7,Michael Garcia #13,Alice,66.77,129.27,70.31,149.69,349.27,Single-ply,SBD,M
Boys,67.13,8,Mando Rodriguez,Falfurrias,65.68,115.67,68.04,127.01,310.71,Single-ply,SBD,M
Boys,67.13,9,Albert Salinas,Bishop,60.42,115.67,63.5,120.2,299.37,Single-ply,SBD,M
Boys,67.13,10,Balta Ramirez,San Diego,63.59,102.06,61.23,127.01,290.3,Single-ply,SBD,M
Boys,67.13,11,Zach Solis,Alice,61.69,108.86,72.57,102.06,283.5,Single-ply,SBD,M
Boys,67.13,12,Vincent Valdez,Aransas Pass,65.77,83.91,47.63,97.52,229.06,Single-ply,SBD,M
Boys,67.13,DQ,Mike Garcia,Falfurrias,65.41,108.86,,,,Single-ply,SBD,M
Boys,67.13,DQ,Johnny Guerra,Orange Grove,60.24,154.22,,,,Single-ply,SBD,M
Boys,67.13,DQ,Jimmy DeLeon,Alice,66.22,102.06,,,,Single-ply,SBD,M
Boys,74.84,1,Nocky Garza,Bishop,74.03,215.46,127.01,197.31,539.77,Single-ply,SBD,M
Boys,74.84,2,Ryan Torres,Gregory-Portland,74.21,179.17,124.74,199.58,503.49,Single-ply,SBD,M
Boys,74.84,3,Devin Lanier,Gregory-Portland,72.21,190.51,117.93,176.9,485.34,Single-ply,SBD,M
Boys,74.84,4,Kelton Craven,Orange Grove,69.49,188.24,108.86,174.63,471.74,Single-ply,SBD,M
Boys,74.84,5,Mario Davila,Aransas Pass,73.21,165.56,106.59,174.63,446.79,Single-ply,SBD,M
Boys,74.84,6,Rene Perez,San Diego,72.76,147.42,74.84,172.37,394.63,Single-ply,SBD,M
Boys,74.84,7,Beto Chavarria,Alice,69.4,158.76,95.25,129.27,383.29,Single-ply,SBD,M
Boys,74.84,8,Aaron Hunter,Bruni,67.49,142.88,70.31,161.03,374.21,Single-ply,SBD,M
Boys,74.84,9,Robert Moctezuma,San Diego,74.03,142.88,83.91,147.42,374.21,Single-ply,SBD,M
Boys,74.84,10,Jose Gonzalez #15,Alice,72.76,129.27,70.31,165.56,365.14,Single-ply,SBD,M
Boys,74.84,11,John Trevino,Hebbronville,70.13,131.54,70.31,151.95,353.8,Single-ply,SBD,M
Boys,74.84,12,Pablo Garza,Gregory-Portland,71.12,124.74,77.11,136.08,337.93,Single-ply,SBD,M
Boys,74.84,13,Dylan Vasquez,Falfurrias,71.3,102.06,65.77,113.4,281.23,Single-ply,SBD,M
Boys,74.84,14,Ricky de la Paz,San Diego,72.21,90.72,72.57,111.13,274.42,Single-ply,SBD,M
Boys,74.84,DQ,David Perez,Bishop,73.3,113.4,88.45,,,Single-ply,SBD,M
Boys,82.1,1,Justin Garcia,Alice,79.38,226.8,138.35,226.8,591.94,Single-ply,SBD,M
Boys,82.1,2,Jesus Espinosa,Alice,81.92,235.87,124.74,229.06,589.67,Single-ply,SBD,M
Boys,89.81,3,Jacob Castillo,Alice,82.19,183.7,129.27,199.58,512.56,Single-ply,SBD,M
Boys,82.1,4,Kirk Salinas,Banquete,80.83,170.1,120.2,181.44,471.74,Single-ply,SBD,M
Boys,82.1,5,Brandon Garza,Falfurrias,79.2,149.69,111.13,201.85,462.66,Single-ply,SBD,M
Boys,82.1,6,Alex Aguirre,Gregory-Portland,76.75,156.49,88.45,145.15,390.09,Single-ply,SBD,M
Boys,89.81,7,Philip Barrientos,Bishop,82.28,136.08,92.99,156.49,385.55,Single-ply,SBD,M
Boys,82.1,8,Angel Pena,Falfurrias,77.38,136.08,77.11,136.08,349.27,Single-ply,SBD,M
Boys,82.1,9,Alex Pena,Robstown,80.1,108.86,92.99,117.93,319.78,Single-ply,SBD,M
Boys,82.1,10,David Morales,Robstown,76.75,102.06,77.11,136.08,315.25,Single-ply,SBD,M
Boys,82.1,11,Faustino Alaniz,Banquete,76.84,113.4,61.23,124.74,299.37,Single-ply,SBD,M
Boys,82.1,12,Austin Gonzalez,Freer,76.38,92.99,61.23,113.4,267.62,Single-ply,SBD,M
Boys,82.1,13,Matthew Cantu,San Diego,78.56,95.25,58.97,81.65,235.87,Single-ply,SBD,M
Boys,82.1,DQ,Juanito Ybanez,Freer,75.84,151.95,92.99,,,Single-ply,SBD,M
Boys,82.1,DQ,Jesus Carrasco,Alice,78.2,,,,,Single-ply,SBD,M
Boys,82.1,DQ,Leo Adams,Alice,78.47,129.27,,,,Single-ply,SBD,M
Boys,99.79,1,Alex Costilla,Falfurrias,89.99,235.87,147.42,240.4,623.69,Single-ply,SBD,M
Boys,89.81,2,Luis Lopez #3,San Diego,86.36,233.6,120.2,165.56,519.36,Single-ply,SBD,M
Boys,89.81,3,Steven Chavez,Aransas Pass,86.18,206.38,106.59,174.63,487.61,Single-ply,SBD,M
Boys,89.81,4,Ryan de la Cruz,Ben Bolt-Palito Blanco,83.73,185.97,106.59,181.44,474,Single-ply,SBD,M
Boys,89.81,5,Marco Balboa,Alice,88.45,183.7,99.79,181.44,464.93,Single-ply,SBD,M
Boys,89.81,6,Nick Pacheco,Bishop,88.72,210.92,70.31,176.9,458.13,Single-ply,SBD,M
Boys,89.81,7,Zach Leal,Robstown,88.36,158.76,108.86,179.17,446.79,Single-ply,SBD,M
Boys,89.81,8,Pete Tejada,Bruni,85.82,161.03,104.33,170.1,435.45,Single-ply,SBD,M
Boys,89.81,9,Esteban Arredondo,Hebbronville,88.54,147.42,92.99,185.97,426.38,Single-ply,SBD,M
Boys,89.81,10,Ej Canales,Hebbronville,89.81,156.49,92.99,170.1,419.57,Single-ply,SBD,M
Boys,89.81,11,Luis Guerra,Bishop,85.18,142.88,83.91,165.56,392.36,Single-ply,SBD,M
Boys,89.81,12,Jaime Sanchez,Bruni,82.64,131.54,79.38,170.1,381.02,Single-ply,SBD,M
Boys,89.81,13,JJ Vela,Falfurrias,84.28,115.67,83.91,131.54,331.12,Single-ply,SBD,M
Boys,89.81,14,Justin Lucio,Gregory-Portland,86.73,70.31,58.97,106.59,235.87,Single-ply,SBD,M
Boys,89.81,DQ,Garrett New,Orange Grove,85.82,165.56,95.25,,,Single-ply,SBD,M
Boys,99.79,1,Oscar Ortiz,Orange Grove,98.61,254.01,131.54,258.55,644.1,Single-ply,SBD,M
Boys,99.79,2,Andres Costilla,Falfurrias,98.25,249.48,131.54,217.72,598.74,Single-ply,SBD,M
Boys,99.79,3,Lucas Lopez,Ben Bolt-Palito Blanco,96.89,183.7,113.4,174.63,471.74,Single-ply,SBD,M
Boys,99.79,4,Jon Garcia,Ben Bolt-Palito Blanco,98.43,170.1,108.86,174.63,453.59,Single-ply,SBD,M
Boys,99.79,5,Luis Monsevais,Orange Grove,97.61,156.49,90.72,174.63,421.84,Single-ply,SBD,M
Boys,99.79,6,Rene Luna,Robstown,91.44,133.81,92.99,161.03,387.82,Single-ply,SBD,M
Boys,99.79,7,Logan Wilson,Falfurrias,94.62,133.81,77.11,161.03,371.95,Single-ply,SBD,M
Boys,99.79,8,Daniel Ybarra,Hebbronville,95.16,142.88,81.65,147.42,371.95,Single-ply,SBD,M
Boys,99.79,9,Nick Paredez,Robstown,98.97,145.15,83.91,138.35,367.41,Single-ply,SBD,M
Boys,99.79,DQ,Rick Gutierrez,Bishop,91.9,,,,,Single-ply,SBD,M
Boys,99.79,DQ,Marcus Hinojosa,Bishop,91.72,,,,,Single-ply,SBD,M
Boys,99.79,DQ,Ruben Ramirez,Aransas Pass,96.71,,,,,Single-ply,SBD,M
Boys,109.77,1,Ivan Gonzalez,Bruni,107.23,235.87,113.4,247.21,596.47,Single-ply,SBD,M
Boys,109.77,2,John Herrera,Banquete,107.32,188.24,136.08,215.46,539.77,Single-ply,SBD,M
Boys,109.77,3,Frank Trevino,San Diego,107.5,195.04,115.67,210.92,521.63,Single-ply,SBD,M
Boys,109.77,4,Esteban Resendez,Alice,107.95,195.04,111.13,199.58,505.76,Single-ply,SBD,M
Boys,109.77,5,Michael Dominguez,Hebbronville,107.41,185.97,113.4,204.12,503.49,Single-ply,SBD,M
Boys,109.77,6,Ramiro Montalvo,Orange Grove,106.59,204.12,104.33,188.24,496.68,Single-ply,SBD,M
Boys,109.77,7,Harley Vickers,Alice,107.23,213.19,120.2,161.03,494.42,Single-ply,SBD,M
Boys,109.77,8,Dj Cowger,Bishop,103.6,181.44,124.74,172.37,478.54,Single-ply,SBD,M
Boys,124.74,9,Joseph Reyes,Falfurrias,109.86,136.08,90.72,142.88,369.68,Single-ply,SBD,M
Boys,109.77,DQ,Danny Cruz,Alice,108.86,,,,,Single-ply,SBD,M
Boys,124.74,DQ,Roy Aguilar,Orange Grove,110,,,,,Single-ply,SBD,M
Boys,124.74,1,Tony Garcia,Hebbronville,118.84,263.08,136.08,231.33,630.49,Single-ply,SBD,M
Boys,124.74,2,Kevin Vela,Bruni,112.85,215.46,127.01,217.72,560.19,Single-ply,SBD,M
Boys,124.74,3,Daniel Gonzalez,Robstown,121.2,204.12,129.27,213.19,546.58,Single-ply,SBD,M
Boys,124.74,4,Mario Alaniz,San Diego,118.12,192.78,120.2,219.99,532.97,Single-ply,SBD,M
Boys,124.74,5,Justin Trevino,Robstown,117.03,174.63,102.06,188.24,464.93,Single-ply,SBD,M
Boys,124.74,6,Rolly Garea,Hebbronville,118.75,158.76,99.79,176.9,435.45,Single-ply,SBD,M
Boys,124.74,DQ,Trey Munoz,Ben Bolt-Palito Blanco,112.49,,,,,Single-ply,SBD,M
Boys,124.74+,1,Oscar O Ortiz,Orange Grove,133.36,226.8,142.88,192.78,562.45,Single-ply,SBD,M
Boys,124.74+,2,JJ Galvan,Orange Grove,138.8,215.46,113.4,226.8,555.65,Single-ply,SBD,M
Boys,124.74+,3,Arturo Pena,Robstown,148.42,142.88,102.06,142.88,387.82,Single-ply,SBD,M
Boys,124.74+,DQ,Federico Hernandez,Robstown,151.14,,,,,Single-ply,SBD,M
