Division,WeightClassKg,Place,Name,Team,BodyweightKg,Best3SquatKg,Best3BenchKg,Best3DeadliftKg,TotalKg,Equipment,Event,Sex,BirthDate
Boys,51.71,1,Tyler Morrow #1,Copperas Cove,50.8,127.01,74.84,158.76,360.61,Single-ply,SBD,M,
Boys,51.71,2,Isaac Jones,Belton,49.35,108.86,63.5,104.33,276.69,Single-ply,SBD,M,
Boys,51.71,3,Marco Castelli,Belton,44.81,74.84,45.36,81.65,201.85,Single-ply,SBD,M,
Boys,51.71,4,Colin Gascon,Belton,43.27,72.57,45.36,81.65,199.58,Single-ply,SBD,M,
Boys,51.71,DQ,Chance Paschal,Blooming Grove,50.26,,,,,Single-ply,SBD,M,
Boys,55.79,1,Richard Willess,Belton,55.43,131.54,90.72,145.15,367.41,Single-ply,SBD,M,
Boys,55.79,2,Joe Velasquez,Blooming Grove,54.25,133.81,72.57,145.15,351.53,Single-ply,SBD,M,
Boys,55.79,3,Peyton Parnell,Waco Midway,54.52,113.4,68.04,124.74,306.17,Single-ply,SBD,M,
Boys,55.79,4,Joshua Donoso,Temple,53.43,90.72,70.31,102.06,263.08,Single-ply,SBD,M,
Boys,55.79,DQ,Tahid Lloyd,Killeen Harker Heights,53.34,111.13,,,,Single-ply,SBD,M,
Boys,59.87,1,Kyle Gascon,Belton,59.69,172.37,81.65,154.22,408.23,Single-ply,SBD,M,
Boys,59.87,DQ,Josh Vasquez,Blooming Grove,57.88,,,,,Single-ply,SBD,M,
Boys,67.13,1,Matthew Beacom,Blooming Grove,66.59,174.63,113.4,183.7,471.74,Single-ply,SBD,M,
Boys,67.13,2,Gerald Fountain,Belton,66.22,133.81,92.99,181.44,408.23,Single-ply,SBD,M,
Boys,67.13,3,Juan Emanuel,Killeen Harker Heights,63.68,138.35,83.91,163.29,385.55,Single-ply,SBD,M,
Boys,67.13,4,Seth Erwin,Blooming Grove,66.22,142.88,86.18,154.22,383.29,Single-ply,SBD,M,
Boys,67.13,5,Sean Galvan,Belton,64.41,131.54,92.99,138.35,362.87,Single-ply,SBD,M,
Boys,67.13,6,Joseph Knox,Belton,66.22,131.54,65.77,158.76,356.07,Single-ply,SBD,M,
Boys,74.84,1,Scott Gurnett,Belton,74.66,195.04,108.86,181.44,485.34,Single-ply,SBD,M,
Boys,74.84,2,Thomas McVade,Temple,69.58,149.69,113.4,192.78,455.86,Single-ply,SBD,M,
Boys,74.84,3,Tyrese Francis,Copperas Cove,71.03,172.37,102.06,174.63,449.06,Single-ply,SBD,M,
Boys,74.84,4,Samari Howard,Temple,73.03,145.15,106.59,170.1,421.84,Single-ply,SBD,M,
Boys,74.84,5,Tyree Trammell,Killeen Harker Heights,69.76,154.22,102.06,163.29,419.57,Single-ply,SBD,M,
Boys,74.84,6,Triston Cohorn,Temple,73.57,147.42,106.59,165.56,419.57,Single-ply,SBD,M,
Boys,74.84,7,Tarin Morrow,Copperas Cove,72.76,163.29,88.45,158.76,410.5,Single-ply,SBD,M,
Boys,74.84,8,Chandler Gastelo,Copperas Cove,70.85,149.69,92.99,161.03,403.7,Single-ply,SBD,M,
Boys,74.84,9,Tavaris Sullivan,Temple,72.57,136.08,90.72,158.76,385.55,Single-ply,SBD,M,
Boys,74.84,10,Riley Tabat,Belton,69.76,158.76,86.18,136.08,381.02,Single-ply,SBD,M,
Boys,74.84,11,Luke Chrisman,Belton,70.58,136.08,92.99,136.08,365.14,Single-ply,SBD,M,
Boys,74.84,12,Kaleb Hill,Temple,68.4,97.52,81.65,124.74,303.91,Single-ply,SBD,M,
Boys,74.84,13,Cody Fishbourne,Temple,69.31,129.27,72.57,99.79,301.64,Single-ply,SBD,M,
Boys,74.84,14,Selby Jackson,Waco Midway,74.62,108.86,81.65,95.25,285.76,Single-ply,SBD,M,
Boys,74.84,DQ,Jackson Hoover,Blooming Grove,69.49,,,,,Single-ply,SBD,M,
Boys,82.1,1,Tim Apodaca,Belton,79.29,217.72,133.81,201.85,553.38,Single-ply,SBD,M,
Boys,82.1,2,Colton Kirk,Waco Midway,77.47,158.76,102.06,170.1,430.91,Single-ply,SBD,M,
Boys,82.1,3,Rodney Rodgers,Waco Midway,80.65,140.61,92.99,161.03,394.63,Single-ply,SBD,M,
Boys,82.1,4,Ryan Saxton,Belton,78.38,154.22,88.45,147.42,390.09,Single-ply,SBD,M,
Boys,82.1,DQ,Austin Morin,Belton,76.66,,,,,Single-ply,SBD,M,
Boys,89.81,1,Isaiah Thomas,Temple,86.45,102.06,74.84,106.59,283.5,Single-ply,SBD,M,
Boys,99.79,1,David Mirafuentes,Blooming Grove,98.97,226.8,122.47,181.44,530.7,Single-ply,SBD,M,
Boys,99.79,2,McKenneth Davis,Copperas Cove,94.89,174.63,142.88,201.85,519.36,Single-ply,SBD,M,
Boys,99.79,3,Jonah Myers,Belton,91.72,190.51,115.67,192.78,498.95,Single-ply,SBD,M,
Boys,99.79,4,Malik Jackson,Belton,96.07,181.44,117.93,181.44,480.81,Single-ply,SBD,M,
Boys,99.79,5,KyJuan Otis,Killeen Harker Heights,92.71,172.37,108.86,174.63,455.86,Single-ply,SBD,M,
Boys,99.79,6,Declan McCabe,Waco Midway,99.79,181.44,102.06,170.1,453.59,Single-ply,SBD,M,
Boys,99.79,7,Caleb Newberry,Copperas Cove,92.17,167.83,102.06,147.42,417.3,Single-ply,SBD,M,
Boys,99.79,8,Aimeer Washington,Killeen Harker Heights,92.44,138.35,83.91,167.83,390.09,Single-ply,SBD,M,
Boys,99.79,DQ,Adam Sanchez,Blooming Grove,92.71,147.42,106.59,,,Single-ply,SBD,M,
Boys,109.77,1,Zachary Hoyle,Copperas Cove,108.86,249.48,183.7,238.14,671.32,Single-ply,SBD,M,
Boys,109.77,2,Jacob Sinkwich,Belton,108.95,217.72,145.15,204.12,566.99,Single-ply,SBD,M,
Boys,109.77,3,Malachi Robinson,Killeen Harker Heights,101.6,188.24,111.13,208.65,508.02,Single-ply,SBD,M,
Boys,109.77,4,Christopher Garcia,Copperas Cove,109.04,158.76,92.99,185.97,437.72,Single-ply,SBD,M,
Boys,109.77,5,Frankquan Sauls,Temple,103.06,124.74,92.99,136.08,353.8,Single-ply,SBD,M,
Boys,109.77,6,Evan Lovejoy,Waco Midway,109,115.67,70.31,120.2,306.17,Single-ply,SBD,M,
Boys,124.74,1,Bryan Luna,Belton,123.29,272.16,181.44,213.19,666.78,Single-ply,SBD,M,
Boys,124.74,2,John Gorrell,Waco Midway,120.47,249.48,158.76,238.14,646.37,Single-ply,SBD,M,
Boys,124.74,3,Jaylin Rawls,Killeen Harker Heights,117.3,195.04,136.08,204.12,535.24,Single-ply,SBD,M,
Boys,124.74,4,Jeremy Carter,Copperas Cove,122.47,188.24,124.74,185.97,498.95,Single-ply,SBD,M,
Boys,124.74,5,Zach Montgomery,Waco Midway,123.1,192.78,124.74,174.63,492.15,Single-ply,SBD,M,
Boys,124.74,6,Nasir Castillo,Killeen Harker Heights,113.4,158.76,102.06,197.31,458.13,Single-ply,SBD,M,
Boys,124.74,7,Kai Lynn,Temple,124.47,185.97,111.13,158.76,455.86,Single-ply,SBD,M,
Boys,124.74,8,Challen Maileoi,Belton,121.29,172.37,102.06,158.76,433.18,Single-ply,SBD,M,
Boys,124.74,9,Blake Keith,Waco Midway,113.67,158.76,108.86,149.69,417.3,Single-ply,SBD,M,
Boys,124.74,10,Ashton Salas,Waco Midway,123.01,154.22,117.93,136.08,408.23,Single-ply,SBD,M,
Boys,124.74,11,Erik Estrada,Waco Midway,113.49,124.74,99.79,136.08,360.61,Single-ply,SBD,M,
Boys,124.74,12,Jayden De La Cruz,Temple,112.31,113.4,111.13,133.81,358.34,Single-ply,SBD,M,
Boys,124.74,DQ,Kobe Morgan,Temple,124.19,,,,,Single-ply,SBD,M,
Boys,124.74+,1,Aaron Shanahan,Copperas Cove,165.56,278.96,185.97,283.5,748.43,Single-ply,SBD,M,
Boys,124.74+,2,Thomas Holman,Copperas Cove,136.71,208.65,140.61,204.12,553.38,Single-ply,SBD,M,
Boys,124.74+,3,Miguel Convento,Waco Midway,157.58,195.04,113.4,195.04,503.49,Single-ply,SBD,M,
Boys,124.74+,4,Peyton Reed,Copperas Cove,135.08,154.22,102.06,154.22,410.5,Single-ply,SBD,M,
Boys,,NS,Josiah Kilgo,Killeen Harker Heights,,,,,,Single-ply,SBD,M,
Boys,,NS,Dayton Lewis,Temple,,,,,,Single-ply,SBD,M,
Boys,,NS,Jayven Taylor,Temple,,,,,,Single-ply,SBD,M,
Boys,,NS,Angel Torrez Perez,Temple,,,,,,Single-ply,SBD,M,
Boys,,NS,Marcus Hills,Temple,,,,,,Single-ply,SBD,M,
