Division,WeightClassKg,Place,Name,Team,BodyweightKg,Best3SquatKg,Best3BenchKg,Best3DeadliftKg,TotalKg,Equipment,Event,Sex
Boys,51.71,1,Johnny Horta,Weslaco East,51.26,170.1,81.65,195.04,446.79,Single-ply,SBD,M
Boys,51.71,2,Rigo Pena,Pharr Valley View,51.62,145.15,97.52,165.56,408.23,Single-ply,SBD,M
Boys,51.71,3,Diego Pena,Roma,51.53,142.88,83.91,158.76,385.55,Single-ply,SBD,M
Boys,51.71,4,Orlando Trigueros,Donna,50.44,142.88,72.57,147.42,362.87,Single-ply,SBD,M
Boys,51.71,5,Homar Longoria,San Benito,51.71,136.08,68.04,158.76,362.87,Single-ply,SBD,M
Boys,51.71,6,Juan Torres #1,San Benito,51.71,117.93,70.31,133.81,322.05,Single-ply,SBD,M
Boys,55.79,1,Anibal Martinez,Los Fresnos,55.16,226.8,113.4,235.87,576.06,Single-ply,SBD,M
Boys,55.79,2,Eric Torres #1,Weslaco East,54.88,215.46,127.01,231.33,573.79,Single-ply,SBD,M
Boys,55.79,3,Alex Solis,Weslaco East,55.52,181.44,111.13,185.97,478.54,Single-ply,SBD,M
Boys,59.87,4,Enrique Gonzalez,Roma,55.97,142.88,99.79,188.24,430.91,Single-ply,SBD,M
Boys,55.79,5,Robert de la Cerda,Mercedes,55.61,158.76,92.99,165.56,417.3,Single-ply,SBD,M
Boys,59.87,6,Isaac Diaz,PSJA,55.88,151.95,86.18,140.61,378.75,Single-ply,SBD,M
Boys,55.79,7,Daniel Rodriguez #8,PSJA,55.43,140.61,88.45,142.88,371.95,Single-ply,SBD,M
Boys,55.79,8,Mike Jaramillo,PSJA Memorial,53.61,140.61,81.65,140.61,362.87,Single-ply,SBD,M
Boys,55.79,9,Dylan Lindley,Mission Sharyland,54.88,140.61,68.04,147.42,356.07,Single-ply,SBD,M
Boys,55.79,10,Ray Fernandez,Donna,52.71,133.81,63.5,142.88,340.19,Single-ply,SBD,M
Boys,59.87,1,Nick Laznovsky,Los Fresnos,59.6,254.01,124.74,235.87,614.62,Single-ply,SBD,M
Boys,59.87,2,Rolie Alaniz,Weslaco East,59.87,208.65,108.86,222.26,539.77,Single-ply,SBD,M
Boys,59.87,3,Lucky Carrasco,Pharr Valley View,59.33,181.44,95.25,190.51,467.2,Single-ply,SBD,M
Boys,59.87,4,Gilbert Flores,Pharr Valley View,59.78,172.37,95.25,185.97,453.59,Single-ply,SBD,M
Boys,59.87,5,Eduardo Porras,Roma,59.06,158.76,102.06,183.7,444.52,Single-ply,SBD,M
Boys,59.87,6,Ricardo Garcia,Rio Grande City,58.33,142.88,90.72,158.76,392.36,Single-ply,SBD,M
Boys,59.87,7,Augustine Soto,Mission,58.51,142.88,95.25,145.15,383.29,Single-ply,SBD,M
Boys,59.87,8,Robert Aranda,Mission Veterans Memorial,58.97,158.76,74.84,131.54,365.14,Single-ply,SBD,M
Boys,59.87,9,Saul Elizondo,Rio Grande City,57.61,124.74,70.31,151.95,347,Single-ply,SBD,M
Boys,59.87,DQ,Marcos Oyervidez,PSJA,56.88,142.88,,,,Single-ply,SBD,M
Boys,59.87,DQ,Jesse Casares,Mercedes,56.7,,,,,Single-ply,SBD,M
Boys,67.13,DQ,Joe Bazaldua,Mercedes,60.06,,,,,Single-ply,SBD,M
Boys,59.87,DQ,Alonzo Tosacano,Edcouch-Elsa,59.87,,,,,Single-ply,SBD,M
Boys,67.13,1,Isaac Nunez,Los Fresnos,65.32,272.16,165.56,231.33,669.05,Single-ply,SBD,M
Boys,74.84,2,Joe Gonzalez,Pharr Valley View,67.31,204.12,122.47,219.99,546.58,Single-ply,SBD,M
Boys,67.13,3,Ruben Salinas,Roma,61.87,213.19,120.2,195.04,528.44,Single-ply,SBD,M
Boys,67.13,4,Izzy Garza,PSJA Memorial,65.77,192.78,131.54,199.58,523.9,Single-ply,SBD,M
Boys,67.13,5,Steven Flores,Pharr Valley View,67.13,195.04,97.52,217.72,510.29,Single-ply,SBD,M
Boys,67.13,6,Bobby Gonzalez,Weslaco East,66.68,190.51,99.79,215.46,505.76,Single-ply,SBD,M
Boys,67.13,7,William Valdez,Rio Grande City,65.95,156.49,131.54,185.97,474,Single-ply,SBD,M
Boys,67.13,8,Isaac Garza,PSJA Memorial,64.86,167.83,102.06,188.24,458.13,Single-ply,SBD,M
Boys,67.13,9,Noel Zuniga,PSJA,62.32,172.37,90.72,181.44,444.52,Single-ply,SBD,M
Boys,67.13,10,Edward Fragoso,San Benito,62.6,136.08,72.57,158.76,367.41,Single-ply,SBD,M
Boys,74.84,11,Joey Mendoza,Mission,67.22,133.81,90.72,138.35,362.87,Single-ply,SBD,M
Boys,67.13,DQ,Daniel Valdez,Mission Sharyland,63.05,147.42,,,,Single-ply,SBD,M
Boys,67.13,DQ,Justin Gonzalez,Weslaco,65.5,,,,,Single-ply,SBD,M
Boys,67.13,DQ,David Perez,PSJA North,65.14,136.08,,,,Single-ply,SBD,M
Boys,74.84,1,Armando Hernandez,Los Fresnos,73.94,226.8,145.15,224.53,596.47,Single-ply,SBD,M
Boys,74.84,2,Aaron Mungia,Weslaco East,74.39,210.92,136.08,226.8,573.79,Single-ply,SBD,M
Boys,74.84,3,Art Medrano,Weslaco East,74.57,213.19,147.42,208.65,569.26,Single-ply,SBD,M
Boys,74.84,4,Gus Sanchez,Los Fresnos,73.48,210.92,124.74,210.92,546.58,Single-ply,SBD,M
Boys,82.1,5,Aric Hernandez,Weslaco,74.93,199.58,115.67,226.8,542.04,Single-ply,SBD,M
Boys,74.84,6,Baldo Candanoza,Weslaco East,73.75,185.97,113.4,210.92,510.29,Single-ply,SBD,M
Boys,74.84,7,Justin Guerra,Rio Grande City,74.84,190.51,111.13,181.44,483.08,Single-ply,SBD,M
Boys,74.84,8,Javier Perez,Weslaco East,73.48,181.44,99.79,190.51,471.74,Single-ply,SBD,M
Boys,74.84,9,Robert Cantu,Mission Sharyland,72.94,172.37,102.06,183.7,458.13,Single-ply,SBD,M
Boys,74.84,10,Daniel Sandoval,PSJA,72.94,170.1,108.86,174.63,453.59,Single-ply,SBD,M
Boys,82.1,11,Jesse Vega,Mercedes,74.93,170.1,102.06,161.03,433.18,Single-ply,SBD,M
Boys,74.84,12,Miguel Pena,Pharr Valley View,72.3,163.29,104.33,161.03,428.64,Single-ply,SBD,M
Boys,74.84,13,Brandon Martinez,Edcouch-Elsa,68.95,145.15,95.25,158.76,399.16,Single-ply,SBD,M
Boys,74.84,14,Rene Codina,Mission Veterans Memorial,68.22,147.42,92.99,142.88,383.29,Single-ply,SBD,M
Boys,74.84,15,Josh Arevalo,PSJA North,74.66,151.95,65.77,151.95,369.68,Single-ply,SBD,M
Boys,74.84,16,Jonathan Balderas,Mission,72.03,156.49,77.11,129.27,362.87,Single-ply,SBD,M
Boys,74.84,DQ,Alex Varela,Mission,71.67,158.76,,,,Single-ply,SBD,M
Boys,82.1,DQ,Andrew Cura,Mission Sharyland,75.02,167.83,,,,Single-ply,SBD,M
Boys,74.84,DQ,Marco Moreno,Mission Veterans Memorial,71.76,161.03,92.99,,,Single-ply,SBD,M
Boys,74.84,DQ,AJ Alvarez,Donna,74.12,,,,,Single-ply,SBD,M
Boys,74.84,DQ,Dustin Trevino,Mission,69.22,,,,,Single-ply,SBD,M
Boys,74.84,DQ,Danny Zavala,Edcouch-Elsa,74.21,199.58,,,,Single-ply,SBD,M
Boys,74.84,DQ,JD Elizondo,PSJA,74.3,,154.22,,,Single-ply,SBD,M
Boys,82.1,1,Chris Belmares,Weslaco East,81.74,229.06,129.27,226.8,585.13,Single-ply,SBD,M
Boys,89.81,2,Trey Villarreal,San Benito,82.19,222.26,142.88,204.12,569.26,Single-ply,SBD,M
Boys,82.1,3,Malcom Garza,Mercedes,80.47,235.87,127.01,204.12,566.99,Single-ply,SBD,M
Boys,82.1,4,Ricardo Lopez,Rio Grande City,81.01,226.8,124.74,199.58,551.11,Single-ply,SBD,M
Boys,82.1,5,To Fonseca,PSJA,79.74,210.92,122.47,192.78,526.17,Single-ply,SBD,M
Boys,82.1,6,Simon Hernandez,Edcouch-Elsa,77.38,192.78,88.45,208.65,489.88,Single-ply,SBD,M
Boys,82.1,7,Roy Bernal,PSJA Memorial,80.74,163.29,117.93,204.12,485.34,Single-ply,SBD,M
Boys,89.81,8,Garaldo Perez,Mercedes,82.19,199.58,108.86,176.9,485.34,Single-ply,SBD,M
Boys,82.1,9,Matt Galvan,San Benito,80.1,167.83,102.06,190.51,460.4,Single-ply,SBD,M
Boys,82.1,10,Jesus Perez,Mission,80.56,163.29,106.59,179.17,449.06,Single-ply,SBD,M
Boys,82.1,11,Brandunn Hernandez,PSJA North,79.11,181.44,86.18,163.29,430.91,Single-ply,SBD,M
Boys,82.1,12,Marco Villarreal,Mission Sharyland,76.48,149.69,95.25,158.76,403.7,Single-ply,SBD,M
Boys,82.1,13,Jaime Villarreal,Mission Veterans Memorial,75.3,136.08,68.04,142.88,347,Single-ply,SBD,M
Boys,89.81,DQ,Mike Galvan,Pharr Valley View,82.33,172.37,104.33,,,Single-ply,SBD,M
Boys,82.1,DQ,Erik Ramirez,Donna,81.19,,,,,Single-ply,SBD,M
Boys,82.1,DQ,Jose de la Rosa,Roma,81.1,197.31,106.59,,,Single-ply,SBD,M
Boys,82.1,DQ,Jose Gazca,Rio Grande City,81.47,,,,,Single-ply,SBD,M
Boys,82.1,DQ,Ram Cantu,PSJA,82.01,,,,,Single-ply,SBD,M
Boys,82.1,DQ,Gabriel Martinez,Weslaco East,80.92,217.72,117.93,,,Single-ply,SBD,M
Boys,89.81,1,Xaviel Hinojosa,Weslaco East,88.9,288.03,172.37,258.55,718.94,Single-ply,SBD,M
Boys,89.81,2,Aaron Castillo,Los Fresnos,87,281.23,147.42,229.06,657.71,Single-ply,SBD,M
Boys,89.81,3,Steven Estevanes,Weslaco East,88.63,256.28,138.35,231.33,625.96,Single-ply,SBD,M
Boys,89.81,4,Joseph Garcia,Weslaco East,89.09,229.06,145.15,247.21,621.42,Single-ply,SBD,M
Boys,89.81,5,Eugene Manrique,Weslaco East,88.9,244.94,124.74,233.6,603.28,Single-ply,SBD,M
Boys,89.81,6,Tony Cordero,PSJA,89.81,251.74,122.47,215.46,589.67,Single-ply,SBD,M
Boys,89.81,7,Gilbert Garcia,Mission Sharyland,88.09,244.94,122.47,213.19,580.6,Single-ply,SBD,M
Boys,89.81,8,Aaron Barron,San Benito,89.27,208.65,127.01,226.8,562.45,Single-ply,SBD,M
Boys,89.81,9,Luis Hernandez,Edcouch-Elsa,85.82,183.7,124.74,215.46,523.9,Single-ply,SBD,M
Boys,89.81,10,Danny Salazar,PSJA Memorial,89.63,204.12,115.67,192.78,512.56,Single-ply,SBD,M
Boys,99.79,11,Juan Villarreal #4,Edcouch-Elsa,89.99,192.78,106.59,213.19,512.56,Single-ply,SBD,M
Boys,89.81,12,Victorino Cantu III,Rio Grande City,85.64,172.37,122.47,204.12,498.95,Single-ply,SBD,M
Boys,89.81,13,Luis Briales,PSJA North,86.91,204.12,99.79,190.51,494.42,Single-ply,SBD,M
Boys,89.81,14,John Arevalo,Weslaco East,86.18,161.03,95.25,195.04,451.32,Single-ply,SBD,M
Boys,89.81,15,Ebert Gaona,Donna,85.55,154.22,90.72,167.83,412.77,Single-ply,SBD,M
Boys,89.81,16,Michael Hernandez,Mission Veterans Memorial,87.27,127.01,86.18,136.08,349.27,Single-ply,SBD,M
Boys,89.81,DQ,Abraham Vasquez,PSJA Memorial,82.64,222.26,129.27,,,Single-ply,SBD,M
Boys,99.79,1,Victor Ruiz,Weslaco East,98.7,310.71,165.56,249.48,725.75,Single-ply,SBD,M
Boys,99.79,2,Andre Evans,San Benito,98.88,285.76,131.54,265.35,682.66,Single-ply,SBD,M
Boys,99.79,3,Aaron Garcia,Los Fresnos,98.61,285.76,158.76,231.33,675.85,Single-ply,SBD,M
Boys,99.79,4,Robert Castillo,PSJA,96.98,238.14,154.22,251.74,644.1,Single-ply,SBD,M
Boys,99.79,5,Ryan Flores,Weslaco,94.8,229.06,142.88,242.67,614.62,Single-ply,SBD,M
Boys,99.79,6,William Relko,Mission,91.99,242.67,131.54,217.72,591.94,Single-ply,SBD,M
Boys,99.79,7,Jose Barrios,Weslaco East,99.61,242.67,124.74,222.26,589.67,Single-ply,SBD,M
Boys,99.79,8,Mauricio Verdin,Weslaco,97.98,244.94,127.01,208.65,580.6,Single-ply,SBD,M
Boys,99.79,9,Anthony Rodriguez,Edcouch-Elsa,98.88,231.33,113.4,213.19,557.92,Single-ply,SBD,M
Boys,99.79,10,Edgar Trejo,Weslaco East,98.7,210.92,127.01,210.92,548.85,Single-ply,SBD,M
Boys,99.79,11,Apollo Romo,Mercedes,99.7,215.46,108.86,204.12,528.44,Single-ply,SBD,M
Boys,99.79,12,Victor Arguellar,Mercedes,95.16,192.78,120.2,197.31,510.29,Single-ply,SBD,M
Boys,99.79,13,Danny Mora,Mission Sharyland,92.99,195.04,106.59,199.58,501.22,Single-ply,SBD,M
Boys,99.79,14,Mario Vera,Edcouch-Elsa,95.62,195.04,102.06,199.58,496.68,Single-ply,SBD,M
Boys,99.79,15,Jacob Alaniz,Mission Veterans Memorial,97.7,183.7,102.06,174.63,460.4,Single-ply,SBD,M
Boys,99.79,DQ,Ruben Rubio,Mercedes,99.79,,,,,Single-ply,SBD,M
Boys,109.77,1,Cat Salazar,Weslaco East,108.86,308.44,206.38,265.35,780.18,Single-ply,SBD,M
Boys,124.74,2,Eliseo Pena,Weslaco,110,278.96,154.22,229.06,662.24,Single-ply,SBD,M
Boys,109.77,3,Sergio Guevara,Donna,105.05,272.16,138.35,226.8,637.3,Single-ply,SBD,M
Boys,109.77,4,Marcelo Campos,Mercedes,108.5,244.94,138.35,229.06,612.35,Single-ply,SBD,M
Boys,124.74,5,Robert Garcia #6,Mission Sharyland,109.95,242.67,138.35,226.8,607.81,Single-ply,SBD,M
Boys,109.77,6,Sam Salazar,Weslaco East,107.95,242.67,138.35,204.12,585.13,Single-ply,SBD,M
Boys,109.77,7,Jaime Tijerina,Mission,104.51,222.26,127.01,217.72,566.99,Single-ply,SBD,M
Boys,109.77,8,Omar Ramirez,Roma,103.33,204.12,117.93,215.46,537.51,Single-ply,SBD,M
Boys,124.74,9,Frank Cavazos,Mission Veterans Memorial,109.95,195.04,99.79,215.46,510.29,Single-ply,SBD,M
Boys,109.77,10,Jorge Flores,Rio Grande City,106.5,183.7,97.52,170.1,451.32,Single-ply,SBD,M
Boys,109.77,11,Danny Ramos,Mission Veterans Memorial,109.77,174.63,124.74,151.95,451.32,Single-ply,SBD,M
Boys,109.77,12,Justin Garza,PSJA North,104.05,188.24,102.06,145.15,435.45,Single-ply,SBD,M
Boys,109.77,DQ,Larry Cardenas,Weslaco,105.23,263.08,,,,Single-ply,SBD,M
Boys,109.77,DQ,Diego Almazo,Mission Sharyland,103.06,,,,,Single-ply,SBD,M
Boys,109.77,DQ,Troy Garza,Edcouch-Elsa,109.59,,,,,Single-ply,SBD,M
Boys,124.74,1,Carlos Cuellar,Weslaco East,117.48,301.64,192.78,249.48,743.89,Single-ply,SBD,M
Boys,124.74,2,Abram Alvarez,Mission,115.58,244.94,158.76,204.12,607.81,Single-ply,SBD,M
Boys,124.74,3,Juan Rodriguez,Edcouch-Elsa,122.65,229.06,131.54,215.46,576.06,Single-ply,SBD,M
Boys,124.74,4,Jorge Alvarez,Edcouch-Elsa,117.57,226.8,142.88,197.31,566.99,Single-ply,SBD,M
Boys,124.74,5,Julio Rivas,San Benito,118.75,213.19,129.27,222.26,564.72,Single-ply,SBD,M
Boys,124.74,6,Joel Sanchez #3,Rio Grande City,124.65,226.8,133.81,199.58,560.19,Single-ply,SBD,M
Boys,124.74,7,Art Camarillo,PSJA North,123.74,226.8,129.27,181.44,537.51,Single-ply,SBD,M
Boys,124.74,8,Grant Garza,Mission Sharyland,116.12,204.12,113.4,192.78,510.29,Single-ply,SBD,M
Boys,124.74,9,Arturo Velasquez,Roma,122.02,206.38,120.2,170.1,496.68,Single-ply,SBD,M
Boys,124.74,10,Jd Zuniga,Mission,123.6,158.76,117.93,158.76,435.45,Single-ply,SBD,M
Boys,124.74+,1,Mando Salazar,Donna,128,274.42,170.1,244.94,689.46,Single-ply,SBD,M
Boys,124.74+,2,Adrian Cantu,Rio Grande City,151.23,244.94,140.61,192.78,578.33,Single-ply,SBD,M
Boys,124.74+,3,Ryan Willison,PSJA Memorial,170.19,215.46,131.54,195.04,542.04,Single-ply,SBD,M
Boys,124.74+,4,Abraham Martinez,Mission Veterans Memorial,169.37,213.19,131.54,185.97,530.7,Single-ply,SBD,M
Boys,124.74+,5,Ricardo Zamora,PSJA,127.55,192.78,106.59,204.12,503.49,Single-ply,SBD,M
Boys,124.74+,DQ,Mike Benevides,San Benito,146.51,,,,,Single-ply,SBD,M
Boys,124.74+,DQ,San Juan Casarez,Mercedes,125.28,,,,,Single-ply,SBD,M
