Division,WeightClassKg,Place,Name,Team,BodyweightKg,Best3SquatKg,Best3BenchKg,Best3DeadliftKg,TotalKg,Equipment,Event,Sex
Boys,51.71,1,Tracer Toten,Mart,49.08,104.33,49.9,108.86,263.08,Single-ply,SBD,M
Boys,51.71,2,Hunter Uptmor,West,42.46,79.38,45.36,83.91,208.65,Single-ply,SBD,M
Boys,55.79,1,Cody Villa,Crawford,55.52,151.95,106.59,210.92,469.47,Single-ply,SBD,M
Boys,59.87,2,Francisco Olquin,Waco Connally,55.97,133.81,88.45,136.08,358.34,Single-ply,SBD,M
Boys,59.87,3,Dalton Wiethorn,West,55.97,124.74,68.04,151.95,344.73,Single-ply,SBD,M
Boys,55.79,DQ,Ricardo Dela Rosa,Waco La Vega,52.62,106.59,,120.2,,Single-ply,SBD,M
Boys,59.87,DQ,Jordon Olsen,West,55.97,102.06,52.16,,,Single-ply,SBD,M
Boys,59.87,1,Bobby Hanson,Axtell,58.79,138.35,81.65,149.69,369.68,Single-ply,SBD,M
Boys,59.87,2,David Villafona,McGregor,58.6,136.08,61.23,147.42,344.73,Single-ply,SBD,M
Boys,59.87,3,Alex Reynoso,West,56.25,108.86,65.77,111.13,285.76,Single-ply,SBD,M
Boys,59.87,4,Jose Hinojosa,Moody,59.06,92.99,63.5,111.13,267.62,Single-ply,SBD,M
Boys,67.13,1,Dylan Haralson,Axtell,65.86,238.14,108.86,240.4,587.4,Single-ply,SBD,M
Boys,67.13,2,James Davis,Waco Connally,65.86,174.63,113.4,192.78,480.81,Single-ply,SBD,M
Boys,67.13,3,Jessie Pena,Waco La Vega,65.05,156.49,77.11,183.7,417.3,Single-ply,SBD,M
Boys,67.13,4,Joseph Bryant,Waco La Vega,65.86,154.22,86.18,176.9,417.3,Single-ply,SBD,M
Boys,67.13,5,Lucas Steinkamp,Crawford,67.13,167.83,102.06,136.08,405.97,Single-ply,SBD,M
Boys,67.13,6,Josh Turner,McGregor,66.59,147.42,86.18,145.15,378.75,Single-ply,SBD,M
Boys,67.13,7,Colin Highfill,Lorena,66.68,140.61,68.04,136.08,344.73,Single-ply,SBD,M
Boys,67.13,8,Dustin Richter,Bosqueville,65.77,133.81,63.5,142.88,340.19,Single-ply,SBD,M
Boys,67.13,9,Joshua Bryant,Waco La Vega,65.95,127.01,70.31,131.54,328.85,Single-ply,SBD,M
Boys,67.13,10,Dylan Walker,Moody,67.13,111.13,86.18,127.01,324.32,Single-ply,SBD,M
Boys,67.13,11,Brady Arnett,West,63.14,133.81,79.38,104.33,317.51,Single-ply,SBD,M
Boys,67.13,12,Braden Smith,Lorena,61.51,115.67,65.77,127.01,308.44,Single-ply,SBD,M
Boys,67.13,13,Dalton Baker,West,62.41,113.4,70.31,111.13,294.84,Single-ply,SBD,M
Boys,67.13,DQ,Trevor Smith,Mart,64.14,131.54,,120.2,,Single-ply,SBD,M
Boys,74.84,1,Nate Seale,McGregor,72.03,181.44,115.67,195.04,492.15,Single-ply,SBD,M
Boys,74.84,2,Barclay Brunson,Crawford,73.3,183.7,115.67,172.37,471.74,Single-ply,SBD,M
Boys,74.84,3,Adolfo Rodriguez,West,72.12,176.9,129.27,163.29,469.47,Single-ply,SBD,M
Boys,74.84,4,Jaime Rodriguez,Waco La Vega,70.03,172.37,113.4,167.83,453.59,Single-ply,SBD,M
Boys,74.84,5,John Botello,Lorena,68.67,165.56,92.99,181.44,439.98,Single-ply,SBD,M
Boys,74.84,6,Desmond Harris,Waco Connally,74.39,172.37,97.52,149.69,419.57,Single-ply,SBD,M
Boys,74.84,7,CJ Smith #2,Crawford,70.94,142.88,92.99,158.76,394.63,Single-ply,SBD,M
Boys,74.84,8,Eric Harringer,Mart,72.76,158.76,74.84,136.08,369.68,Single-ply,SBD,M
Boys,74.84,9,Trey Whitlock,Valley Mills,68.86,124.74,74.84,165.56,365.14,Single-ply,SBD,M
Boys,74.84,10,Eric Salazar,West,73.57,124.74,106.59,127.01,358.34,Single-ply,SBD,M
Boys,74.84,11,Evan Bodnar,Moody,73.3,136.08,70.31,147.42,353.8,Single-ply,SBD,M
Boys,82.1,12,Lance Bracco,Crawford,74.93,131.54,86.18,122.47,340.19,Single-ply,SBD,M
Boys,74.84,13,Clayton Wilson #2,West,70.85,142.88,74.84,113.4,331.12,Single-ply,SBD,M
Boys,74.84,14,Paeton McFarlin,West,72.94,127.01,83.91,111.13,322.05,Single-ply,SBD,M
Boys,74.84,15,Mariano Perez,West,73.48,120.2,65.77,129.27,315.25,Single-ply,SBD,M
Boys,82.1,1,Jose Rodriquez,Valley Mills,79.92,176.9,88.45,181.44,446.79,Single-ply,SBD,M
Boys,82.1,2,Brett Ramsey,Moody,80.56,174.63,88.45,172.37,435.45,Single-ply,SBD,M
Boys,82.1,3,Alex Smith #9,Bosqueville,77.84,172.37,90.72,170.1,433.18,Single-ply,SBD,M
Boys,82.1,4,Aaron Harralson,West,80.01,163.29,104.33,149.69,417.3,Single-ply,SBD,M
Boys,82.1,5,Jamaica Doyle,Waco Connally,79.83,151.95,90.72,158.76,401.43,Single-ply,SBD,M
Boys,82.1,6,Hunter Isham,Lorena,78.65,133.81,86.18,165.56,385.55,Single-ply,SBD,M
Boys,82.1,7,Hunter Hartberg,Lorena,78.56,151.95,92.99,136.08,381.02,Single-ply,SBD,M
Boys,82.1,8,Morgan Marshall #1,Crawford,79.92,117.93,81.65,129.27,328.85,Single-ply,SBD,M
Boys,82.1,DQ,Thomas Wright,Moody,75.84,129.27,,142.88,,Single-ply,SBD,M
Boys,82.1,DQ,Chris Henson,Moody,80.92,115.67,,111.13,,Single-ply,SBD,M
Boys,89.81,1,Dillon Van Zandt,Crawford,87,197.31,111.13,201.85,510.29,Single-ply,SBD,M
Boys,89.81,2,Blake Mitchell,Lorena,88.72,195.04,104.33,176.9,476.27,Single-ply,SBD,M
Boys,89.81,3,Logan Willenborg,West,83.28,170.1,113.4,185.97,469.47,Single-ply,SBD,M
Boys,89.81,4,Taivunn Briscoe,Waco Connally,85.82,151.95,95.25,158.76,405.97,Single-ply,SBD,M
Boys,89.81,5,Daniel Fraire,West,84.73,149.69,90.72,142.88,383.29,Single-ply,SBD,M
Boys,99.79,6,Will Worrell,Crawford,89.99,154.22,92.99,136.08,383.29,Single-ply,SBD,M
Boys,89.81,7,David Angel,Valley Mills,87.45,115.67,99.79,120.2,335.66,Single-ply,SBD,M
Boys,89.81,8,Matt Sparks,West,86.36,120.2,70.31,120.2,310.71,Single-ply,SBD,M
Boys,99.79,1,Cooper Haigood,Lorena,93.17,219.99,106.59,215.46,542.04,Single-ply,SBD,M
Boys,99.79,2,Corey Kemp,Waco La Vega,94.62,215.46,120.2,195.04,530.7,Single-ply,SBD,M
Boys,99.79,3,Alex Parsons,McGregor,91.44,197.31,120.2,199.58,517.1,Single-ply,SBD,M
Boys,99.79,4,Logan Prock,Mart,98.25,208.65,136.08,170.1,514.83,Single-ply,SBD,M
Boys,99.79,5,Dustin Brown,Waco La Vega,90.72,190.51,124.74,172.37,487.61,Single-ply,SBD,M
Boys,99.79,6,Preston Trevino,Lorena,93.71,176.9,90.72,190.51,458.13,Single-ply,SBD,M
Boys,109.77,7,Marcus DeLeon,Waco Connally,99.97,181.44,113.4,161.03,455.86,Single-ply,SBD,M
Boys,99.79,8,Jacob Byrd,Lorena,92.99,167.83,90.72,151.95,410.5,Single-ply,SBD,M
Boys,99.79,9,Blake Picha,West,94.17,151.95,102.06,147.42,401.43,Single-ply,SBD,M
Boys,99.79,10,Emanuel Chavez,Valley Mills,99.61,142.88,68.04,167.83,378.75,Single-ply,SBD,M
Boys,99.79,11,Cooper McCauley,McGregor,91.9,122.47,77.11,140.61,340.19,Single-ply,SBD,M
Boys,109.77,12,Dalton Zander,Bosqueville,99.84,117.93,77.11,115.67,310.71,Single-ply,SBD,M
Boys,99.79,DQ,Erick Marton,Axtell,95.07,192.78,204.12,,,Single-ply,SBD,M
Boys,109.77,1,Jason Harris,West,106.14,240.4,145.15,206.38,591.94,Single-ply,SBD,M
Boys,109.77,2,Bryan Villa,Grandview,104.87,201.85,147.42,183.7,532.97,Single-ply,SBD,M
Boys,109.77,3,Jared Camp,Grandview,106.59,204.12,115.67,192.78,512.56,Single-ply,SBD,M
Boys,109.77,4,Robert Gober,Waco Connally,105.32,199.58,120.2,181.44,501.22,Single-ply,SBD,M
Boys,109.77,5,Payton Price #1,Grandview,100.97,147.42,95.25,136.08,378.75,Single-ply,SBD,M
Boys,109.77,6,Jacob Etheredge,McGregor,104.87,147.42,88.45,124.74,360.61,Single-ply,SBD,M
Boys,109.77,7,Tanner Sparks,West,101.88,127.01,95.25,136.08,358.34,Single-ply,SBD,M
Boys,124.74,1,Byron Bryant,Waco La Vega,121.47,276.69,158.76,233.6,669.05,Single-ply,SBD,M
Boys,124.74,2,Jordan Rivera,Waco La Vega,114.94,249.48,158.76,226.8,635.03,Single-ply,SBD,M
Boys,124.74,3,Andrew Escobedo,Waco La Vega,117.84,231.33,129.27,183.7,544.31,Single-ply,SBD,M
Boys,124.74,4,Danny Canet,Mart,123.47,226.8,102.06,181.44,510.29,Single-ply,SBD,M
Boys,124.74+,1,Marques Robinson,Waco Connally,148.78,272.16,158.76,219.99,650.91,Single-ply,SBD,M
Boys,124.74+,2,Codi Birch-Harris,Waco Connally,140.16,204.12,113.4,183.7,501.22,Single-ply,SBD,M
Boys,124.74+,3,Jaylen Tobler,Waco Connally,156.58,226.8,104.33,163.29,494.42,Single-ply,SBD,M
Boys,124.74+,DQ,Traylon Berry,Waco La Vega,135.9,244.94,,206.38,,Single-ply,SBD,M
